Generated File. Do not edit.

[HEADER]
Version:0.09:$

[PLUGINS]
/usr/lib/firefox-3.0.1/plugins/libnullplugin.so:$
:$
1217577497000:1:1:$
The default plugin handles plugin data for mimetypes and extensions that are not specified and facilitates downloading of new plugins.:$
Default Plugin:$
1
0:*:All types:.*:$
/usr/lib/mozilla/plugins/nphelix.so:$
:$
1182956365000:1:1:$
Helix DNA Plugin: RealPlayer G2 Plug-In Compatible version 0.4.0.574 built with gcc 3.4.5 on Jun 27 2007:$
Helix DNA Plugin: RealPlayer G2 Plug-In Compatible:$
1
0:audio/x-pn-realaudio-plugin:RealPlayer Plugin Metafile:rpm:$
/opt/Packages/jdk1.5.0_15/jre/plugin/i386/ns7/libjavaplugin_oji.so:$
:$
1202553046000:1:1:$
Java(TM) Plug-in 1.5.0_15:$
Java(TM) Plug-in 1.5.0_15-b04:$
31
0:application/x-java-vm:Java::$
1:application/x-java-applet:Java::$
2:application/x-java-applet;version=1.1:Java::$
3:application/x-java-applet;version=1.1.1:Java::$
4:application/x-java-applet;version=1.1.2:Java::$
5:application/x-java-applet;version=1.1.3:Java::$
6:application/x-java-applet;version=1.2:Java::$
7:application/x-java-applet;version=1.2.1:Java::$
8:application/x-java-applet;version=1.2.2:Java::$
9:application/x-java-applet;version=1.3:Java::$
10:application/x-java-applet;version=1.3.1:Java::$
11:application/x-java-applet;version=1.4:Java::$
12:application/x-java-applet;version=1.4.1:Java::$
13:application/x-java-applet;version=1.4.2:Java::$
14:application/x-java-applet;version=1.5:Java::$
15:application/x-java-applet;jpi-version=1.5.0_15:Java::$
16:application/x-java-bean:Java::$
17:application/x-java-bean;version=1.1:Java::$
18:application/x-java-bean;version=1.1.1:Java::$
19:application/x-java-bean;version=1.1.2:Java::$
20:application/x-java-bean;version=1.1.3:Java::$
21:application/x-java-bean;version=1.2:Java::$
22:application/x-java-bean;version=1.2.1:Java::$
23:application/x-java-bean;version=1.2.2:Java::$
24:application/x-java-bean;version=1.3:Java::$
25:application/x-java-bean;version=1.3.1:Java::$
26:application/x-java-bean;version=1.4:Java::$
27:application/x-java-bean;version=1.4.1:Java::$
28:application/x-java-bean;version=1.4.2:Java::$
29:application/x-java-bean;version=1.5:Java::$
30:application/x-java-bean;jpi-version=1.5.0_15:Java::$
/usr/lib/acroread/Adobe/Reader8/Browser/intellinux/nppdf.so:$
:$
1214410612000:1:1:$
The Adobe Reader plugin is used to enable viewing of PDF and FDF files from within the browser.:$
Adobe Reader 8.0:$
5
0:application/pdf:Portable Document Format:pdf:$
1:application/vnd.fdf:Acrobat Forms Data Format:fdf:$
2:application/vnd.adobe.xfdf:XML Version of Acrobat Forms Data Format:xfdf:$
3:application/vnd.adobe.xdp+xml:Acrobat XML Data Package:xdp:$
4:application/vnd.adobe.xfd+xml:Adobe FormFlow99 Data File:xfd:$
