# Generated file. ** DO NOT EDIT! **

[Header,2]
0,Version,2,0
1,AppDir,/usr/lib/firefox-3.0.1

[Directories,4]
0,/usr/lib/firefox-3.0.1/components
1,/usr/lib/mozilla/plugins
2,/usr/lib/firefox-3.0.1/plugins
3,/usr/lib/firefox-3.0.1/plugins

[Files,2]
0,browser.xpt,0,346035,1217577301000
1,nphelix.xpt,1,5086,1182956364000

[ArchiveItems,0]

[Interfaces,1356]
0,nsIDOMStyleSheet,{a6cf9080-15b3-11d2-932e-00805f8add32},0,-1,1
1,nsIAddonSearchResultsCallback,{a6f70917-dd30-4eb6-8b3d-453204f96f33},0,-1,1
2,nsIContentSniffer,{a5772d1b-fc63-495e-a169-96e8d3311af0},0,-1,1
3,extIPreferenceBranch,{ce697d40-aa5a-11db-abbd-0800200c9a66},0,-1,1
4,nsIDOMMediaList,{9b0c2ed7-111c-4824-adf9-ef0da6dad371},0,-1,1
5,nsISHContainer,{65281ba2-988a-11d3-bdc7-0050040a9b44},0,-1,1
6,nsITimer,{436a83fa-b396-11d9-bcfa-00112478d626},0,-1,1
7,nsIBrowserSearchService,{8307b8f2-08ea-45b8-96bf-b1dc7688fe3b},0,-1,1
8,nsIDOMNSXBLFormControl,{1c28ed66-1dd2-11b2-95af-e2cf10931adb},0,-1,1
9,nsIThreadPool,{394c29f0-225f-487f-86d3-4c259da76cab},0,-1,1
10,nsIScrollBoxObject,{56e2ada8-4631-11d4-ba11-001083023c1e},0,-1,1
11,nsICachingChannel,{830d4bcb-3e46-4011-9bda-51a5d1af891f},0,-1,1
12,nsIAuthPromptAdapterFactory,{60e46383-bb9a-4860-8962-80d9c5c05ddc},0,-1,1
13,nsIDOMSVGAnimatedInteger,{7b196db6-955e-4a9f-8f42-645ebc2ce938},0,-1,1
14,nsIJARURI,{b0922a89-f87b-4cb5-8612-305a285fcca7},0,-1,1
15,nsIClassicPluginFactory,{07bfa284-1dd2-11b2-90f8-fef5608e8a56},0,-1,0
16,nsIPropertyBag2,{625cfd1e-da1e-4417-9ee9-dbc8e0b3fd79},0,-1,1
17,nsILocalFile,{aa610f20-a889-11d3-8c81-000064657374},0,-1,1
18,nsIDOMStorageItem,{0cc37c78-4c5f-48e1-adfc-7480b8fe9dc4},0,-1,1
19,nsIChannelClassifier,{d17f8f74-d403-4dea-b124-3ace5dbe44dc},0,-1,1
20,nsIStorageStream,{604ad9d0-753e-11d3-90ca-34278643278f},0,-1,1
21,nsIDOMLSInput,{165e7f61-5048-4c2c-b4bf-6b44bb617ee4},0,-1,1
22,nsIDOMSVGFEFuncBElement,{8b139fe7-5d21-4af3-beda-414aa089b3fb},0,-1,1
23,nsITreeSelection,{ab6fe746-300b-4ab4-abb9-1c0e3977874c},0,-1,1
24,nsIDownloadObserver,{44b3153e-a54e-4077-a527-b0325e40924e},0,-1,1
25,nsIUnicharStreamLoaderObserver,{6bb3e55b-69c0-4fc9-87e5-bed780d997ce},0,-1,1
26,nsIFile,{c8c0a080-0868-11d3-915f-d9d889d48e3c},0,-1,1
27,nsIDocumentLoader,{bbe961ee-59e9-42bb-be50-0331979bb79f},0,-1,1
28,nsIDOMHTMLTableCellElement,{a6cf90b7-15b3-11d2-932e-00805f8add32},0,-1,1
29,nsIException,{f3a8d3b4-c424-4edc-8bf6-8974c983ba78},0,-1,1
30,nsIContentPrefObserver,{746c7a02-f6c1-4869-b434-7c8b86e60e61},0,-1,1
31,nsIOfflineCacheSession,{3a33e268-4175-4440-a933-89d461c86c5f},0,-1,1
32,nsIUrlClassifierDBService,{7aae3f3a-527d-488b-a448-45dca6db0e80},0,-1,1
33,nsIRDFDataSource,{0f78da58-8321-11d2-8eac-00805f29f370},0,-1,1
34,nsIContentPrefService,{72c05ba2-9d92-4661-b053-f8f869973e6a},0,-1,1
35,nsIDOMSVGFEMergeElement,{b860512c-2547-4d1f-bb43-b57b54d39014},0,-1,1
36,nsICacheEntryInfo,{fab51c92-95c3-4468-b317-7de4d7588254},0,-1,1
37,mozIStorageConnection,{623f9ddb-434b-4d39-bc2d-1c617da241d0},0,-1,1
38,nsITextServicesFilter,{5bec321f-59ac-413a-a4ad-8a8d7c50a0d0},0,-1,1
39,nsIJAR,{04501db2-0409-11d3-bcf8-00805f0e1353},0,-1,0
40,nsIDOMDocument,{a6cf9075-15b3-11d2-932e-00805f8add32},0,-1,1
41,nsILoginManagerPrompter,{68b3cb59-51b8-4c57-bd7f-b2ce955a593d},0,-1,1
42,nsISearchContext,{31aba0f0-2d93-11d3-8069-00600811a9c3},0,-1,1
43,nsIDirectoryServiceProvider,{bbf8cab0-d43a-11d3-8cc2-00609792278c},0,-1,1
44,nsIX509Cert,{f0980f60-ee3d-11d4-998b-00b0d02354a0},0,-1,1
45,nsISecurityEventSink,{a71aee68-dd38-4736-bd79-035fea1a1ec6},0,-1,1
46,nsIRDFNode,{0f78da50-8321-11d2-8eac-00805f29f370},0,-1,1
47,nsIDOMSVGDescElement,{56f539b7-0b3d-4bac-b60d-9efe220216ea},0,-1,1
48,nsIDOMCSSRule,{a6cf90c1-15b3-11d2-932e-00805f8add32},0,-1,1
49,nsIProxyInfo,{3fe9308b-1608-4fa0-933c-c5ec2c6175fd},0,-1,1
50,nsIDOMHTMLLinkElement,{a6cf9088-15b3-11d2-932e-00805f8add32},0,-1,1
51,nsISupportsPRUint32,{e01dc470-4a1c-11d3-9890-006008962422},0,-1,1
52,nsIDOMXMLDocument,{8816d003-e7c8-4065-8827-829b8d07b6e0},0,-1,1
53,nsIDOMSVGImageElement,{43ae4efe-2610-4cce-8242-279e556a78fa},0,-1,1
54,nsIDOMHTMLLIElement,{a6cf909e-15b3-11d2-932e-00805f8add32},0,-1,1
55,nsIDOMHTMLParagraphElement,{a6cf90a1-15b3-11d2-932e-00805f8add32},0,-1,1
56,nsIAssociatedContentSecurity,{8db92dde-799f-4d33-80f7-459cac800dc9},0,-1,1
57,nsIRunnable,{4a2abaf0-6886-11d3-9382-00104ba0fd40},0,-1,1
58,nsIDirectoryService,{57a66a60-d43a-11d3-8cc2-00609792278c},0,-1,1
59,extIExtension,{10cee02c-f6e0-4d61-ab27-c16572b18c46},0,-1,1
60,nsIDNSListener,{41466a9f-f027-487d-a96c-af39e629b8d2},0,-1,1
61,nsIPK11TokenDB,{4ee28c82-1dd2-11b2-aabf-bb4017abe395},0,-1,1
62,nsIAccessibleText,{caa4f543-070e-4705-8428-2e53575c41bb},0,-1,1
63,nsICommandLineValidator,{5ecaa593-7660-4a3a-957a-92d5770671c7},0,-1,1
64,nsIDownloadManager,{88a2df08-47f7-4268-bb16-81bab231f1bf},0,-1,1
65,nsIDOMViewCSS,{0b9341f3-95d4-4fa4-adcd-e119e0db2889},0,-1,1
66,nsIMIMEHeaderParam,{ddbbdfb8-a1c0-4dd5-a31b-5d2a7a3bb6ec},0,-1,1
67,xpcIJSWeakReference,{5b776cd4-952b-45a2-b363-84e99e8fe608},0,-1,1
68,nsPIAccessibleDocument,{fa9cafac-9562-49ad-afcf-911ab1e4e4fb},0,-1,0
69,nsIInstallLocation,{32a74707-ec7c-af19-f4d8-d0cd8cb6a948},0,-1,1
70,nsIGlobalHistory,{9491c383-e3c4-11d2-bdbe-0050040a9b44},0,-1,1
71,imgIContainerObserver,{53102f15-0f53-4939-957e-aea353ad2700},0,-1,1
72,nsIStringEnumerator,{50d3ef6c-9380-4f06-9fb2-95488f7d141c},0,-1,1
73,nsIHttpAuthManager,{7ce8e9d1-8b4b-4883-a307-66fe12a50153},0,-1,1
74,nsIDOMSerializer,{9fd4ba15-e67c-4c98-b52c-7715f62c9196},0,-1,1
75,nsICacheMetaDataVisitor,{22f9a49c-3cf8-4c23-8006-54efb11ac562},0,-1,1
76,nsIPKCS11Slot,{c2d4f296-ee60-11d4-998b-00b0d02354a0},0,-1,1
77,nsIGeneratingKeypairInfoDialogs,{11bf5cdc-1dd2-11b2-ba6a-c76afb326fa1},0,-1,1
78,jsdIEphemeral,{46f1e23e-1dd2-11b2-9ceb-8285f2e95e69},0,-1,1
79,mozIStorageService,{fe8e95cb-b377-4c8d-bccb-d9198c67542b},0,-1,1
80,nsIPrompt,{a63f70c0-148b-11d3-9333-00104ba0fd40},0,-1,1
81,nsICache,{ec1c0063-197d-44bb-84ba-7525d50fc937},0,-1,1
82,nsIUrlClassifierCallback,{4ca27b6b-a674-4b3d-ab30-d21e2da2dffb},0,-1,1
83,nsIDOMHTMLFontElement,{a6cf90a7-15b3-11d2-932e-00805f8add32},0,-1,1
84,nsIXULBuilderListener,{ac46be8f-c863-4c23-84a2-d0fcc8dfa9f4},0,-1,1
85,nsIDownloader,{fafe41a9-a531-4d6d-89bc-588a6522fb4e},0,-1,1
86,fuelIApplication,{fe74cf80-aa2d-11db-abbd-0800200c9a66},0,-1,1
87,nsICacheVisitor,{f8c08c4b-d778-49d1-a59b-866fdc500d95},0,-1,1
88,nsIOutputStream,{0d0acd2a-61b4-11d4-9877-00c04fa0cf4a},0,-1,1
89,nsIDOMCounter,{31adb439-0055-402d-9b1d-d5ca94f3f55b},0,-1,1
90,nsIHTTPHeaderListener,{ea51e0b8-871c-4b85-92da-6f400394c5ec},0,-1,1
91,nsIUnicodeNormalizer,{b43a461f-1bcf-4329-820b-66e48c979e14},0,-1,1
92,nsIDOMNSLocation,{a6cf9108-15b3-11d2-932e-00805f8add32},0,-1,1
93,nsISecureBrowserUI,{081e31e0-a144-11d3-8c7c-00609792278c},0,-1,1
94,nsIAuthenticationInfo,{078a1b99-6be2-4a57-a749-378f4a506097},0,-1,0
95,nsICertPickDialogs,{51d59b08-1dd2-11b2-ad4a-a51b92f8a184},0,-1,1
96,nsIToolkit,{18032bd0-b265-11d1-aa2a-000000000000},0,-1,0
97,nsISupportsFloat,{abeaa390-4ac0-11d3-baea-00805f8a5dd7},0,-1,1
98,nsIDOMHTMLSelectElement,{a6cf9090-15b3-11d2-932e-00805f8add32},0,-1,1
99,mozIStorageStatement,{42fad13e-c67d-4b2c-bd61-2c5b17186772},0,-1,1
100,nsIBufferedOutputStream,{6476378a-da09-11d3-8cda-0060b0fc14a3},0,-1,1
101,nsIMultiPartChannel,{ba78db7b-b88c-4b76-baf9-3c2296a585ae},0,-1,1
102,nsIUnicharLineInputStream,{67f42475-ba80-40f8-ac0b-649c89230184},0,-1,1
103,nsIDOMSVGTransformable,{b81f6e37-1842-4534-a546-1ab86e59a3c6},0,-1,1
104,nsITokenDialogs,{bb4bae9c-39c5-11d5-ba26-00108303b117},0,-1,1
105,nsILoginManager,{579f45b7-682f-479f-9085-3f8075488803},0,-1,1
106,nsIDOMDocumentCSS,{39f76c23-45b2-428a-9240-a981e5abf148},0,-1,1
107,nsIAccessibleTreeCache,{7e0f50b0-6444-4372-b00f-4ce81c6b058a},0,-1,0
108,nsITransportSecurityInfo,{0d0a6b62-d4a9-402e-a197-6bc6e358fec9},0,-1,1
109,nsPIPromptService,{d16e906d-bab3-49e0-8688-7f49a6f4293a},0,-1,0
110,nsITextToSubURI,{8b042e24-6f87-11d3-b3c8-00805f8a6670},0,-1,1
111,nsIDOMHTMLFrameElement,{a6cf90b9-15b3-11d2-932e-00805f8add32},0,-1,1
112,nsITokenPasswordDialogs,{be26b580-1dd1-11b2-9946-c598d0d07727},0,-1,1
113,nsIDataSignatureVerifier,{0a84b3d5-6ba9-432d-89da-4fbd0b0f2aec},0,-1,1
114,jsdIExecutionHook,{9a7b6ad0-1dd1-11b2-a789-fcfae96356a2},0,-1,1
115,nsINavBookmarkObserver,{f9828ba8-9c70-4d95-b926-60d9e4378d7d},0,-1,1
116,nsIDOMPopupBlockedEvent,{05be571f-c3ea-4959-a340-c57b1591ae4b},0,-1,1
117,nsIFeedWriter,{67003393-018c-4e96-af10-c6c51a049fad},0,-1,1
118,nsIDOMSVGFECompositeElement,{6ff3c539-1a3b-4a3f-8acd-354d349eb7fc},0,-1,1
119,nsIXPIProgressDialog,{ce8f744e-d5a5-41b3-911f-0fee3008b64e},0,-1,1
120,nsISupportsChar,{e2b05e40-4a1c-11d3-9890-006008962422},0,-1,1
121,nsIHttpHeaderVisitor,{0cf40717-d7c1-4a94-8c1e-d6c9734101bb},0,-1,1
122,nsIXPCConstructor,{c814ca20-e0dc-11d3-8f5f-0010a4e73d9a},0,-1,1
123,nsIDOMSVGZoomEvent,{339a8c7a-552e-4cbc-8d96-8370a3939358},0,-1,1
124,nsICancelable,{d94ac0a0-bb18-46b8-844e-84159064b0bd},0,-1,1
125,nsIDOMHTMLCanvasElement,{0583a2ea-ab19-40e1-8be4-5e9b2f275560},0,-1,1
126,nsIJARChannel,{6e6cc56d-51eb-4299-a795-dcfd1229ab3d},0,-1,1
127,nsIMemory,{59e7e77a-38e4-11d4-8cf5-0060b0fc14a3},0,-1,1
128,nsIDOMLSSerializerFilter,{b9b6ec85-f69f-4a5a-a96a-8a7a8f07e2b4},0,-1,1
129,nsIBinaryOutputStream,{204ee610-8765-11d3-90cf-0040056a906e},0,-1,1
130,nsIDOMDOMStringList,{0bbae65c-1dde-11d9-8c46-000a95dc234c},0,-1,1
131,nsIImageLoadingContent,{7744c6d3-5c60-4b7b-a526-4fe9d5ac7e97},0,-1,1
132,nsIExceptionService,{35a88f54-f267-4414-92a7-191f6454ab52},0,-1,1
133,nsIFileOutputStream,{e6f68040-c7ec-11d3-8cda-0060b0fc14a3},0,-1,1
134,nsIStreamBufferAccess,{ac923b72-ac87-4892-ac7a-ca385d429435},0,-1,0
135,nsIThreadInternal,{f89b5063-b06d-42f8-bf23-4dfcf2d80d6a},0,-1,1
136,nsIDOMCSSMediaRule,{a6cf90bc-15b3-11d2-932e-00805f8add32},0,-1,1
137,imgIDecoder,{9eebf43a-1dd1-11b2-953e-f1782f4cbad3},0,-1,1
138,nsIRDFInMemoryDataSource,{17c4e0aa-1dd2-11b2-8029-bf6f668de500},0,-1,1
139,nsIFeed,{3b8aae33-80e2-4efa-99c8-a6c5b99f76ea},0,-1,1
140,nsIEditorMailSupport,{fdf23301-4a94-11d3-9ce4-9960496c41bc},0,-1,1
141,nsIDOMHTMLPreElement,{a6cf90a4-15b3-11d2-932e-00805f8add32},0,-1,1
142,nsIDOMPluginArray,{f6134680-f28b-11d2-8360-c90899049c3c},0,-1,1
143,nsIRDFXMLSink,{eb1a5d31-ab33-11d2-8ec6-00805f29f370},0,-1,1
144,nsIPluginStreamInfo,{ed7d4ca0-b005-11d2-adaa-00805f6dec49},0,-1,0
145,gfxIImageFrame,{9c37930b-cadd-453c-89e1-9ed456715b9c},0,-1,1
146,nsITableEditor,{4805e684-49b9-11d3-9ce4-ed60bd6cb5bc},0,-1,1
147,nsPICommandUpdater,{b135f602-0bfe-11d5-a73c-f0e420e8293c},0,-1,1
148,nsIDOMDocumentType,{a6cf9077-15b3-11d2-932e-00805f8add32},0,-1,1
149,nsIExternalProtocolService,{70f93b7a-3ec6-4bcb-b093-92d9984c9f83},0,-1,1
150,nsIDOMSVGAnimatedNumberList,{93ebb030-f82d-4f8e-b133-d1b5abb73cf3},0,-1,1
151,nsIPluginInstancePeer,{4b7cea20-019b-11d2-815b-006008119d7a},0,-1,0
152,nsIDOMDOMException,{a6cf910a-15b3-11d2-932e-00805f8add32},0,-1,1
153,nsIDocumentCharsetInfo,{2d40b291-01e1-11d4-9d0e-0050040007b2},0,-1,1
154,nsIContentViewerContainer,{ea2ce7a0-5c3d-11d4-90c2-0050041caf44},0,-1,1
155,nsIAppStartup,{6799abed-4721-4f51-9304-d1a2ea1df5d5},0,-1,1
156,nsIAccessibleStateChangeEvent,{444db51a-05fd-4576-8a64-32dbb2a83884},0,-1,1
157,nsICookie2,{736619fe-8d09-4e59-8223-32f176c22977},0,-1,1
158,nsIPKCS11ModuleDB,{ff9fbcd7-9517-4334-b97a-ceed78909974},0,-1,1
159,nsIBrowserInstance,{8af0fa40-598d-11d3-806a-00600811a9c3},0,-1,1
160,nsIRemoteService,{a2240f6a-f1e4-4548-9e1a-6f3bc9b2426c},0,-1,1
161,nsIAddonUpdateCheckListener,{c946119f-9e7c-41aa-a794-803148045350},0,-1,1
162,nsIRandomGenerator,{2362d97a-747a-4576-8863-697667309209},0,-1,1
163,nsIAccessibleTextChangeEvent,{50a1e151-8e5f-4bcc-aaaf-a4bed1190e93},0,-1,1
164,nsIDOMCDATASection,{a6cf9071-15b3-11d2-932e-00805f8add32},0,-1,1
165,nsIXPCScriptable,{1455f6fe-6de9-4b62-a2b3-d1aee82dd829},0,-1,0
166,nsIJVMConfigManager,{ca29fff1-a677-493c-9d80-3dc60432212b},0,-1,1
167,nsIDOMXULContainerItemElement,{4650e55f-4777-4271-8b62-9603a7dd4614},0,-1,1
168,nsISSLSocketControl,{a092097c-8386-4f1b-97b1-90eb70008c2d},0,-1,1
169,nsISSLErrorListener,{99f8d972-bae4-414c-b39b-47587d3ded68},0,-1,1
170,nsIContentHandler,{49439df2-b3d2-441c-bf62-866bdaf56fd2},0,-1,1
171,nsIPKIParamBlock,{b6fe3d78-1dd1-11b2-9058-ced9016984c8},0,-1,1
172,nsIMutableArray,{af059da0-c85b-40ec-af07-ae4bfdc192cc},0,-1,1
173,nsIBufEntropyCollector,{485b87a8-5dd7-4b8d-8ea8-dee53201f899},0,-1,0
174,nsIDOMFile,{4a17d83b-424f-43f3-8a7c-430f406921be},0,-1,1
175,nsIHTMLEditor,{afc36593-5787-4420-93d9-b2c0ccbf0cad},0,-1,1
176,nsIURIClassifierCallback,{8face46e-0c96-470f-af40-0037dcd797bd},0,-1,1
177,nsIDownloadProgressListener,{7acb07ea-cac2-4c15-a3ad-23aaa789ed51},0,-1,1
178,nsISHEntry,{c16fde76-3108-450e-8c8c-ae8286f286ed},0,-1,1
179,nsISHistoryInternal,{9c47c121-1c6e-4d8f-b904-3ac968116e88},0,-1,1
180,nsIGnomeVFSService,{dea20bf0-4e4d-48c5-b932-dc3e116dc64b},0,-1,1
181,nsITreeContentView,{5ef62896-0c0a-41f1-bb3c-44a60f5dfdab},0,-1,1
182,nsIDOMSVGPathSegLinetoHorizontalRel,{8693268c-5180-43fd-acc3-5b9c09f43386},0,-1,1
183,nsIXPIDialogService,{8cdd8baa-1dd2-11b2-909a-f0178da5c5ff},0,-1,1
184,nsIEditActionListener,{b22907b1-ee93-11d2-8d50-000064657374},0,-1,1
185,nsISyncStreamListener,{7e1aa658-6e3f-4521-9946-9685a169f764},0,-1,1
186,nsIAccessibleEditableText,{52837507-202d-4e72-a482-5f068a1fd720},0,-1,1
187,nsIAboutModule,{9575693c-60d9-4332-b6b8-6c29289339cb},0,-1,1
188,nsIDOMNotation,{a6cf907e-15b3-11d2-932e-00805f8add32},0,-1,1
189,nsIProxyObjectManager,{ee8ce1e3-0319-4bd9-8f70-7258b21c7733},0,-1,1
190,nsIFileUtilities,{89a31ce0-019a-11d2-815b-006008119d7a},0,-1,0
191,nsIAuthInformation,{0d73639c-2a92-4518-9f92-28f71fea5f20},0,-1,1
192,nsIProfileLock,{50e07b0a-f338-4da3-bcdb-f4bb0db94dbe},0,-1,1
193,nsIAutoCompleteSimpleResultListener,{004efdc5-1989-4874-8a7a-345bf2fa33af},0,-1,1
194,nsISelectElement,{35bd8ed5-5f34-4126-8c4f-38ba01681836},0,-1,1
195,nsIFind,{75125d55-37ee-4575-b9b5-f33bfa68c2a1},0,-1,1
196,nsIXTFPrivate,{13ef3d54-1dd1-4a5c-a8d5-a04a327fb9b6},0,-1,1
197,nsIPlaintextEditor,{1480e196-0d5c-40cf-8563-ed8a33eabcf2},0,-1,1
198,nsIDOMNSHTMLSelectElement,{a6cf9105-15b3-11d2-932e-00805f8add32},0,-1,1
199,nsIDOMHTMLModElement,{a6cf90a9-15b3-11d2-932e-00805f8add32},0,-1,1
200,nsIDOMSVGPathSegLinetoVerticalAbs,{fd5ffb7b-7279-4c09-abfd-b733dc872e80},0,-1,1
201,nsIPluginInputStream,{af160530-542a-11d2-8164-006008119d7a},0,-1,0
202,nsICRLInfo,{c185d920-4a3e-11d5-ba27-00108303b117},0,-1,1
203,nsIDOMCSSMozDocumentRule,{4eb9adac-afaf-4b8a-8640-7340863c1587},0,-1,1
204,nsIAccessibleRelation,{f42a1589-70ab-4704-877f-4a9162bbe188},0,-1,1
205,nsIDOMSVGEllipseElement,{5d1cd1e6-4a14-4056-acc0-2f78c1672898},0,-1,1
206,nsIRDFInferDataSource,{2b04860f-4017-40f6-8a57-784a1e35077a},0,-1,1
207,nsIDOMDocumentTraversal,{13f236c0-47f8-11d5-b6a3-009027446e84},0,-1,1
208,nsIDOMCSSStyleSheet,{a6cf90c2-15b3-11d2-932e-00805f8add32},0,-1,1
209,nsIXTFAttributeHandler,{72152f7f-7e8d-43fd-8477-3f29ae8d240d},0,-1,1
210,nsISupportsWeakReference,{9188bc86-f92e-11d2-81ef-0060083a0bcf},0,-1,1
211,nsIBlocklistService,{0c3fe697-d50d-4f42-b747-0c5855cfc60e},0,-1,1
212,nsIRDFRemoteDataSource,{1d297320-27f7-11d3-be01-000064657374},0,-1,1
213,nsIDOMSVGPathSegLinetoHorizontalAbs,{4a54a4d2-edef-4e19-9600-2330311000f4},0,-1,1
214,nsIAsyncInputStream,{a5f255ab-4801-4161-8816-277ac92f6ad1},0,-1,1
215,nsIDOMText,{a6cf9082-15b3-11d2-932e-00805f8add32},0,-1,1
216,nsIDOMRect,{71735f62-ac5c-4236-9a1f-5ffb280d531c},0,-1,1
217,nsICRLManager,{486755db-627a-4678-a21b-f6a63bb9c56a},0,-1,1
218,imgIEncoder,{ba3a854b-fb8d-4881-8af9-5849df10e5e5},0,-1,1
219,nsIDOMCSS2Properties,{529b987a-cb21-4d58-99d7-9586e7662801},0,-1,1
220,nsISearchEngine,{803e510b-4b27-4ba2-a16d-bb5fa953c166},0,-1,1
221,nsIUrlListManagerCallback,{fa4caf12-d057-4e7e-81e9-ce066ceee90b},0,-1,1
222,nsIDOMXPathNamespace,{75506f87-b504-11d5-a7f2-ca108ab8b6fc},0,-1,1
223,nsIDOMHTMLHRElement,{a6cf90a8-15b3-11d2-932e-00805f8add32},0,-1,1
224,fuelIBookmarkRoots,{c9a80870-eb3c-11dc-95ff-0800200c9a66},0,-1,1
225,nsIXULTemplateRuleFilter,{819cd1ed-8010-42e1-a8b9-778b726a1ff3},0,-1,1
226,nsIWebBrowserFocus,{9c5d3c58-1dd1-11b2-a1c9-f3699284657a},0,-1,1
227,nsISAXErrorHandler,{e02b6693-6cca-11da-be43-001422106990},0,-1,1
228,nsIDOMSVGPathSegCurvetoCubicAbs,{380afecd-f884-4da7-a0d7-5ffc4531b70b},0,-1,1
229,nsIHTMLObjectResizer,{8b396020-69d3-451f-80c1-1a96a7da25a9},0,-1,1
230,nsIXMLContentBuilder,{e9c4cd4f-cd41-43d0-bf3b-48abb9cde90f},0,-1,1
231,nsIInputStreamCallback,{d1f28e94-3a6e-4050-a5f5-2e81b1fc2a43},0,-1,1
232,nsISupportsPRUint64,{e13567c0-4a1c-11d3-9890-006008962422},0,-1,1
233,nsIClipboard,{38984945-8674-4d04-b786-5c0ca9434457},0,-1,1
234,inIDOMUtils,{78fd16c2-bdfb-4b1d-8738-d536d0a8f430},0,-1,1
235,nsIToolkitProfileService,{9b434f48-438c-4f85-89de-b7f321a45341},0,-1,1
236,nsIRandomAccessIterator,{9bd6fdb0-1dd1-11b2-9101-d15375968230},0,-1,1
237,nsITransactionListener,{58e330c4-7b48-11d2-98b9-00805f297d89},0,-1,1
238,nsICookiePermission,{4b1a775d-f6d3-4389-be2e-9dfbaf2ab47b},0,-1,1
239,nsIContentPolicy,{58cf9dca-40b3-6211-a508-7351f437a53e},0,-1,1
240,nsIHelperAppLauncher,{cc75c21a-0a79-4f68-90e1-563253d0c555},0,-1,1
241,nsIScriptEventHandler,{375f787f-8d3a-4344-b540-293d5645c22c},0,-1,0
242,nsIRelativeFilePref,{2f977d4e-5485-11d4-87e2-0010a4e75ef2},0,-1,1
243,nsIDOMClientRect,{f8583bbc-c6de-4646-b39f-df7e766442e9},0,-1,1
244,nsINavHistoryQueryResultNode,{ea17745a-1852-4155-a98f-d1dd1763b3df},0,-1,1
245,nsIDOMDocumentStyle,{3d9f4973-dd2e-48f5-b5f7-2634e09eadd9},0,-1,1
246,nsIURIContentListener,{94928ab3-8b63-11d3-989d-001083010e9b},0,-1,1
247,nsIRDFObserver,{3cc75360-484a-11d2-bc16-00805f912fe7},0,-1,1
248,nsITransportEventSink,{eda4f520-67f7-484b-a691-8c3226a5b0a6},0,-1,1
249,nsIWebBrowser,{69e5df00-7b8b-11d3-af61-00a024ffc08c},0,-1,1
250,nsIRDFXMLSource,{4da56f10-99fe-11d2-8ebb-00805f29f370},0,-1,1
251,nsIDOMElement,{a6cf9078-15b3-11d2-932e-00805f8add32},0,-1,1
252,nsIXULAppInfo,{a61ede2a-ef09-11d9-a5ce-001124787b2e},0,-1,1
253,nsIDOMSVGTextElement,{6d43b1b4-efb6-426d-9e65-4420c3e24688},0,-1,1
254,jsdIFilter,{05593438-1b83-4517-864f-3cea3d37a266},0,-1,1
255,nsIDOMCSSStyleRule,{a6cf90bf-15b3-11d2-932e-00805f8add32},0,-1,1
256,nsIDOMClientInformation,{f8bbf8c3-c47b-465a-a221-22824449f689},0,-1,1
257,nsIContentViewer,{89653afe-182f-401f-9f3c-8858d91387cd},0,-1,1
258,nsIDOMJSWindow,{c8188620-1dd1-11b2-bc88-df8440498add},0,-1,1
259,nsIDOMSVGAnimatedLengthList,{bfa6e42b-bc9d-404d-8688-729fdbfff801},0,-1,1
260,nsIGlobalHistory2,{cf777d42-1270-4b34-be7b-2931c93feda5},0,-1,1
261,nsIFastLoadReadControl,{652ecec6-d40b-45b6-afef-641d6c63a35b},0,-1,1
262,nsIWebBrowserChrome2,{2585a7b1-7b47-43c4-bf17-c6bf84e09b7b},0,-1,1
263,nsIFileProtocolHandler,{255602ea-c31f-4d29-8f35-905ead3f76f4},0,-1,1
264,nsIXPConnectWrappedJS,{bed52030-bca6-11d2-ba79-00805f8a5dd7},0,-1,0
265,nsIHTMLInlineTableEditor,{eda2e65c-a758-451f-9b05-77cb8de74ed2},0,-1,1
266,nsIAutoCompleteController,{6f08d134-8536-4b28-b456-d150fbaa66a9},0,-1,1
267,nsIDOMSVGAnimatedPreserveAspectRatio,{afcd7cd4-d74d-492f-b3b1-d71bfa36874f},0,-1,1
268,nsIPrefBranch,{56c35506-f14b-11d3-99d3-ddbfac2ccf65},0,-1,1
269,nsIDOMPlugin,{f6134681-f28b-11d2-8360-c90899049c3c},0,-1,1
270,nsISelectionListener,{a6cf90e2-15b3-11d2-932e-00805f8add32},0,-1,1
271,nsIWebHandlerApp,{7521a093-c498-45ce-b462-df7ba0d882f6},0,-1,1
272,nsIMIMEInputStream,{dcbce63c-1dd1-11b2-b94d-91f6d49a3161},0,-1,1
273,jsdIScriptHook,{ae89a7e2-1dd1-11b2-8c2f-af82086291a5},0,-1,1
274,nsIWindowDataSource,{3722a5b9-5323-4ed0-bb1a-8299f27a4e89},0,-1,1
275,nsIStreamLoaderObserver,{359f7990-d4e9-11d3-a1a5-0050041caf44},0,-1,1
276,nsIScriptableInterfaces,{01c78c65-31da-456b-90bf-da39d09fdcbf},0,-1,1
277,nsIXTFElementFactory,{27c10dca-2efc-416b-ae36-9794380a661e},0,-1,1
278,nsIDOMSVGRadialGradientElement,{d0262ae1-31a4-44be-b82e-85e4cfe280fd},0,-1,1
279,fuelIBookmarkFolder,{9f42fe20-52de-4a55-8632-a459c7716aa0},0,-1,1
280,nsIInputStreamTee,{44e8b2c8-1ecb-4a63-8b23-3e3500c34f32},0,-1,1
281,rdfIDataSource,{ebce86bd-1568-4a34-a808-9ccf9cde8087},0,-1,1
282,nsIJVMManager,{a1e5ed50-aa4a-11d1-85b2-00805f0e4dfe},0,-1,1
283,nsIWritableVariant,{5586a590-8c82-11d5-90f3-0010a4e73d9a},0,-1,1
284,nsIFontEnumerator,{924d98d9-3518-4cb4-8708-c74fe8e3ec3c},0,-1,1
285,nsISound,{b01adad7-d937-4738-8508-3bd5946bf9c8},0,-1,1
286,nsIDOMNode,{a6cf907c-15b3-11d2-932e-00805f8add32},0,-1,1
287,nsIAppShellService,{93a28ba2-7e22-11d9-9b6f-000a95d535fa},0,-1,1
288,nsIDOMSVGPathSegCurvetoCubicSmoothAbs,{5fa8fea8-bdd1-4315-ac44-a39b3ff347b5},0,-1,1
289,nsIDOMDOMConfiguration,{cfb5b821-9016-4a79-9d98-87b57c3ea0c7},0,-1,1
290,nsIProtocolHandler,{15fd6940-8ea7-11d3-93ad-00104ba0fd40},0,-1,1
291,nsIPKCS11Module,{8a44bdf9-d1a5-4734-bd5a-34ed7fe564c2},0,-1,1
292,nsIFormatConverter,{948a0023-e3a7-11d2-96cf-0060b0fb9956},0,-1,1
293,nsIChannel,{c63a055a-a676-4e71-bf3c-6cfa11082018},0,-1,1
294,nsIDOMDocumentFragment,{a6cf9076-15b3-11d2-932e-00805f8add32},0,-1,1
295,nsIProtocolProxyService2,{dbd9565d-29b1-437a-bff5-2fc339e2c5df},0,-1,1
296,nsIDOMParser,{5677f36e-1842-4c6f-a39c-2e5576ab8b40},0,-1,1
297,imgILoader,{d2f50c69-1064-4ce3-a92d-01dc5f5b4842},0,-1,1
298,nsIDOMCSSPageRule,{a6cf90bd-15b3-11d2-932e-00805f8add32},0,-1,1
299,nsIDOMSVGAnimatedTransformList,{fd54c8c4-2eb4-4849-8df6-79985c2491da},0,-1,1
300,nsIDOMSVGGElement,{0bd57cbd-a090-44aa-a61b-2fb876841194},0,-1,1
301,nsIBrowserGlue,{01639c88-c0eb-4d75-9ee1-f325c1e04215},0,-1,1
302,nsIExternalProtocolHandler,{0e61f3b2-34d7-4c79-bfdc-4860bc7341b7},0,-1,1
303,nsIXTFElement,{4f144387-796d-4baf-8641-5db45dba1808},0,-1,1
304,nsIFilePicker,{d24ef0aa-d555-4117-84af-9cbbb7406909},0,-1,1
305,nsIPropertyElement,{283ee646-1aef-11d4-98b3-00c04fa0ce9a},0,-1,1
306,nsIDOMLocation,{a6cf906d-15b3-11d2-932e-00805f8add32},0,-1,1
307,nsIStandardURL,{babd6cca-ebe7-4329-967c-d6b9e33caa81},0,-1,1
308,nsIRDFPurgeableDataSource,{951700f0-fed0-11d2-bdd9-00104bde6048},0,-1,1
309,nsIDOMWindowInternal,{3414ebc7-731f-4697-9f43-aca6f5050875},0,-1,1
310,nsISeekableStream,{8429d350-1040-4661-8b71-f2a6ba455980},0,-1,1
311,nsIHandlerService,{53f0ad17-ec62-46a1-adbc-efccc06babcd},0,-1,1
312,nsIScriptSecurityManager,{3fffd8e8-3fea-442e-a0ed-2ba81ae197d5},0,-1,1
313,nsIWindowMediator,{0659cb81-faad-11d2-8e19-b206620a657c},0,-1,1
314,nsIMicrosummary,{6867dc21-077f-4462-937d-cd8b7c680e0c},0,-1,1
315,nsIDocumentLoaderFactory,{5e7d2967-5a07-444f-95d5-25b533252d38},0,-1,1
316,nsIProxiedChannel,{6238f134-8c3f-4354-958f-dfd9d54a4446},0,-1,1
317,nsIStreamListenerTee,{fb683e76-d42b-41a4-8ae6-65a6c2b146e5},0,-1,1
318,nsIDOMNSCSS2Properties,{c9339b8c-9bdd-4d2a-a61a-55ca609b92bd},0,-1,1
319,nsIBrowserProfileMigrator,{f8365b4a-da55-4e47-be7a-230142360f62},0,-1,1
320,nsINSSCertCache,{1b75bdae-1757-4322-9d1e-cfcaa18cb710},0,-1,1
321,nsILoginManagerStorage,{18b5acbd-36dc-496d-9212-6f1a3c068a84},0,-1,1
322,nsIDOMLSParserFilter,{10e8893d-ddf5-45d1-8872-615d72065fb4},0,-1,1
323,nsIDOMNSDocument,{533a8131-8d0c-4ebf-990b-7fad7cd514ee},0,-1,1
324,nsINavHistoryObserver,{eacb76eb-3eeb-419b-a963-9b3a9d65f356},0,-1,1
325,nsIScriptError,{b0196fc7-1913-441a-882a-453c0d8b89b8},0,-1,1
326,nsIXPConnectJSObjectHolder,{8916a320-d118-11d3-8f3a-0010a4e73d9a},0,-1,0
327,nsIXULWindow,{b6c2f9e1-53a0-45f2-a2b8-fe37861fe8a8},0,-1,1
328,nsIEventTarget,{4e8febe4-6631-49dc-8ac9-308c1cb9b09c},0,-1,1
329,nsIURLParser,{7281076d-cf37-464a-815e-698235802604},0,-1,1
330,nsIX509CertValidity,{e701dfd8-1dd1-11b2-a172-ffa6cc6156ad},0,-1,1
331,nsIAutoCompleteMdbResult2,{148c9dc5-0fbb-408b-80fe-544f6a85b433},0,-1,0
332,extIExtensions,{de281930-aa5a-11db-abbd-0800200c9a66},0,-1,1
333,nsINativeAppSupport,{5fdf8480-1f98-11d4-8077-00600811a9c3},0,-1,1
334,nsIDOMSVGMetadataElement,{94558064-140c-41a1-9cc9-4e9cdbf5c124},0,-1,1
335,nsINavHistoryQueryOptions,{a46c132e-35f3-4e1e-bb3d-4e3043657248},0,-1,1
336,nsIRDFDate,{e13a24e1-c77a-11d2-80be-006097b76b8e},0,-1,1
337,nsIDOMSVGFEDisplacementMapElement,{80e1ea9c-eff3-490a-8c98-918963d2e7e9},0,-1,1
338,nsIDocCharset,{9c18bb4e-1dd1-11b2-bf91-9cc82c275823},0,-1,1
339,nsITransfer,{23c51569-e9a1-4a92-adeb-3723db82ef7c},0,-1,1
340,nsIPrintProgress,{7e46bc35-fb7d-4b45-ab35-82fd61015380},0,-1,1
341,nsIXPTLoaderSink,{6e48c500-8682-4730-add6-7db693b9e7ba},0,-1,1
342,nsIDOMMimeType,{f6134682-f28b-11d2-8360-c90899049c3c},0,-1,1
343,nsIDOMMouseEvent,{ff751edc-8b02-aae7-0010-8301838a3123},0,-1,1
344,nsIAccessibleEvent,{ba448f0e-a761-48c8-a0f5-1f25e23d4fe4},0,-1,1
345,nsIDOMXULLabelElement,{c987629e-6370-45f5-86ec-aa765fa861cd},0,-1,1
346,nsIDOMNSRGBAColor,{742dc816-5134-4214-adfa-cad9dd3377cd},0,-1,1
347,nsIApplicationUpdateService,{9849c4bf-5197-4d22-baa8-e3b44a1703d2},0,-1,1
348,nsIInterfaceRequestor,{033a1470-8b2a-11d3-af88-00a024ffc08c},0,-1,1
349,nsINestedURI,{6de2c874-796c-46bf-b57f-0d7bd7d6cab0},0,-1,1
350,nsIDOMHTMLOptGroupElement,{a6cf9091-15b3-11d2-932e-00805f8add32},0,-1,1
351,nsICommandManager,{080d2001-f91e-11d4-a73c-f9242928207c},0,-1,1
352,nsIIDNService,{a592a60e-3621-4f19-a318-2bf233cfad3e},0,-1,1
353,nsIRecyclingAllocator,{d064a04c-9cee-4319-be31-64d565bccba9},0,-1,1
354,nsIDOMHTMLTitleElement,{a6cf9089-15b3-11d2-932e-00805f8add32},0,-1,1
355,nsITraceRefcnt,{273dc92f-0fe6-4545-96a9-21be77828039},0,-1,0
356,nsITimelineService,{93276790-3daf-11d5-b67d-000064657374},0,-1,1
357,nsIUnicharOutputStream,{2d00b1bb-8b21-4a63-bcc6-7213f513ac2e},0,-1,1
358,nsIStackFrame,{91d82105-7c62-4f8b-9779-154277c0ee90},0,-1,1
359,nsIDataType,{4d12e540-83d7-11d5-90ed-0010a4e73d9a},0,-1,1
360,nsIJSON,{45464c36-efde-4cb5-8e00-07480533ff35},0,-1,1
361,nsINavHistoryVisitResultNode,{8e2c5a86-b33d-4fa6-944b-559af7e95fcd},0,-1,1
362,nsIDOMCryptoDialogs,{1f8fe77e-1dd2-11b2-8dd2-e55f8d3465b8},0,-1,1
363,nsIDOMSVGGradientElement,{988b2de4-137b-4bb8-a15e-fe94038e9cf3},0,-1,1
364,nsICookieManager,{aaab6710-0f2c-11d5-a53b-0010a401eb10},0,-1,1
365,nsIDOMSVGFEImageElement,{3250f5c9-9c76-4e77-96d8-5f0cc85f41c4},0,-1,1
366,nsIInputStreamPump,{400f5468-97e7-4d2b-9c65-a82aecc7ae82},0,-1,1
367,nsIDOMLSParser,{2a31a3a0-be68-40af-9f64-914192f0fba2},0,-1,1
368,nsIDOMCSSStyleDeclaration,{a6cf90be-15b3-11d2-932e-00805f8add32},0,-1,1
369,nsIOfflineCacheUpdateService,{3abee04b-5bbb-4405-b659-35f780e38da0},0,-1,1
370,nsIRequest,{ef6bfbd2-fd46-48d8-96b7-9f8f0fd387fe},0,-1,1
371,nsIJSIID,{e76ec564-a080-4705-8609-384c755ec91e},0,-1,1
372,nsIDOMHTMLTableSectionElement,{a6cf90b5-15b3-11d2-932e-00805f8add32},0,-1,1
373,nsIDirectoryEnumerator,{31f7f4ae-6916-4f2d-a81e-926a4e3022ee},0,-1,1
374,imgICache,{f1b74aae-5661-4753-a21c-66dd644afebc},0,-1,1
375,nsIDOMSVGZoomAndPan,{18967370-921a-4245-8158-a279b190abca},0,-1,1
376,nsIContainerBoxObject,{35d4c04b-3bd3-4375-92e2-a818b4b4acb6},0,-1,1
377,nsIProtocolProxyService,{e38ab577-786e-4a7f-936b-7ae4c7d877b2},0,-1,1
378,nsISupportsPRUint8,{dec2e4e0-4a1c-11d3-9890-006008962422},0,-1,1
379,nsIDOMSVGStyleElement,{9af0d129-b366-4aa8-b7d8-8dce93148d91},0,-1,1
380,nsIURILoader,{2f7e8051-f1c9-4bcc-8584-9cfd5849e343},0,-1,1
381,nsIWindowCreator,{30465632-a777-44cc-90f9-8145475ef999},0,-1,1
382,nsIEditorLogging,{4805e681-49b9-11d3-9ce4-ed60bd6cb5bc},0,-1,1
383,nsIIdentityInfo,{e9da87b8-b87c-4bd1-a6bc-5a9a2c7f6d8d},0,-1,1
384,nsITransferable,{8b5314bc-db01-11d2-96ce-0060b0fb9956},0,-1,1
385,nsIDOMNSEventTarget,{37ca0054-c715-42df-83c7-35c69e24a632},0,-1,1
386,nsIEditingSession,{274cd32e-3675-47e1-9d8a-fc6504ded9ce},0,-1,1
387,nsIDOMHTMLDocument,{a6cf9084-15b3-11d2-932e-00805f8add32},0,-1,1
388,nsIStyleSheetService,{1f42a6a2-ab0a-45d4-8a96-396f58ea6c6d},0,-1,1
389,nsIUrlClassifierUtils,{e4f0e59c-b922-48b0-a7b6-1735c1f96fed},0,-1,1
390,nsIDOMCustomEvent,{55c7af7b-1a64-40bf-87eb-2c2cbee0491b},0,-1,1
391,nsIDOMSVGFESpecularLightingElement,{49c38287-a7c2-4895-a630-86d2b45df23c},0,-1,1
392,nsIUrlListManager,{9c5598ec-9986-40cf-af40-b5e0d817a3a0},0,-1,1
393,nsIPluginInstancePeer2,{e7d48c00-e1f1-11d2-8360-fbc8abc4ae7c},0,-1,0
394,imgIRequest,{a297d3fa-5e0c-4e59-9f30-a01c9d4f3f8b},0,-1,1
395,nsILocaleService,{c2edc848-4219-4440-abbf-98119882c83f},0,-1,1
396,nsIPluginDocument,{0d8129f1-5a55-4eaa-851f-15e43ce3d183},0,-1,0
397,nsIRequestObserver,{fd91e2e0-1481-11d3-9333-00104ba0fd40},0,-1,1
398,nsIDOMJSPluginArray,{ee753352-1dd1-11b2-b18d-b0b7320a28c3},0,-1,1
399,nsIDOMSVGFEComponentTransferElement,{4de6b44a-f909-4948-bc43-5ee2ca6de55b},0,-1,1
400,nsIDOMHTMLElement,{a6cf9085-15b3-11d2-932e-00805f8add32},0,-1,1
401,nsIEditorIMESupport,{ce1c0424-c3c0-44b0-97d6-df12deb19d45},0,-1,1
402,nsISelectionController,{5f8f41cb-f182-4010-9e38-7c873e8e8a9f},0,-1,1
403,nsIDOMHTMLIFrameElement,{a6cf90ba-15b3-11d2-932e-00805f8add32},0,-1,1
404,nsIXULBrowserWindow,{67a601df-f091-4894-a2e2-2e6cfebb35ea},0,-1,1
405,nsIDOMSVGPointList,{4c12af24-0fc2-4fe7-b71d-5d6b41d463c1},0,-1,1
406,nsIUserInfo,{6c1034f0-1dd2-11b2-aa14-e6657ed7bb0b},0,-1,1
407,nsICacheEntryDescriptor,{49c1a11d-f5d2-4f09-8262-551e64908ada},0,-1,1
408,nsIHTMLAbsPosEditor,{91375f52-20e6-4757-9835-eb04fabe5498},0,-1,1
409,nsIXSLTProcessor,{4a91aeb3-4100-43ee-a21e-9866268757c5},0,-1,1
410,nsIAutoCompleteObserver,{18c36504-9a4c-4ac3-8494-bd05e00ae27f},0,-1,1
411,nsIFormHistory2,{a61f0a62-ae0a-4382-b474-d259442ca80c},0,-1,1
412,nsISecurityWarningDialogs,{1c399d06-1dd2-11b2-bc58-c87cbcacdb78},0,-1,1
413,nsIImageDocument,{7b80eebc-c98e-4461-8bdb-6e3b6e828890},0,-1,1
414,jsdIDebuggerService,{9dd9006a-4e5e-4a80-ac3d-007fb7335ca4},0,-1,1
415,nsITransport,{d8786c64-eb49-4a0b-b42c-0936a745fbe8},0,-1,1
416,nsIMutable,{321578d0-03c1-4d95-8821-021ac612d18d},0,-1,1
417,jsdICallHook,{f102caf6-1dd1-11b2-bd43-c1dbacb95a98},0,-1,1
418,nsIListBoxObject,{fde7c970-0b4e-49f4-b1eb-974ae6c96336},0,-1,1
419,nsIAccessibleScrollType,{05cd38b1-94b3-4cdf-8371-3935a9611405},0,-1,1
420,nsICategoryManager,{3275b2cd-af6d-429a-80d7-f0c5120342ac},0,-1,1
421,nsIEmbeddingSiteWindow2,{e932bf55-0a64-4beb-923a-1f32d3661044},0,-1,1
422,extIPreference,{2c7462e2-72c2-4473-9007-0e6ae71e23ca},0,-1,1
423,nsIURIClassifier,{2de5c563-1203-43dd-a212-f5d56d530b6f},0,-1,1
424,nsIWindowMediatorListener,{2f276982-0d60-4377-a595-d350ba516395},0,-1,1
425,nsISHistoryListener,{3b07f591-e8e1-11d4-9882-00c04fa02f40},0,-1,1
426,nsIEditor,{2f76d0bb-d90d-4454-905e-9b0cc39a701c},0,-1,1
427,nsIAccessibleTableChangeEvent,{a9485c7b-5861-4695-8441-fab0235b205d},0,-1,1
428,nsIDOMHistory,{896d1d20-b4c4-11d2-bd93-00805f8ae3f4},0,-1,1
429,nsIZipEntry,{e1c028bc-c478-11da-95a8-00e08161165f},0,-1,1
430,nsIWebContentHandlerRegistrar,{e6a75410-c93e-42bf-84ca-a5c3ec34a2f1},0,-1,1
431,mozIStorageStatementWrapper,{eee6f7c9-5586-4eaf-b35c-dca987c4ffd1},0,-1,1
432,nsIUnicharInputStream,{d5e3bd80-6723-4b92-b0c9-22f6162fd94f},0,-1,1
433,rdfITripleVisitor,{aafea151-c271-4505-9978-a100d292800c},0,-1,1
434,nsIDOMDOMImplementationLS,{e2c8b03c-a49a-4923-81b0-ba9a86da0e21},0,-1,1
435,nsIDOMAbstractView,{f51ebade-8b1a-11d3-aae7-0010830123b4},0,-1,1
436,nsIPopupBoxObject,{a41af368-9f73-4d73-a058-49dd7e41f9ea},0,-1,1
437,nsIDOMXULSelectControlElement,{919d9808-8937-4cec-9390-91225eb8864b},0,-1,1
438,nsIRDFLiteral,{e0c493d2-9542-11d2-8eb8-00805f29f370},0,-1,1
439,nsIVariant,{6c9eb060-8c6a-11d5-90f3-0010a4e73d9a},0,-1,1
440,nsIDOMCanvasPattern,{21dea65c-5c08-4eb1-ac82-81fe95be77b8},0,-1,1
441,nsISupportsVoid,{464484f0-568d-11d3-baf8-00805f8a5dd7},0,-1,1
442,nsIDOMCSSImportRule,{a6cf90cf-15b3-11d2-932e-00805f8add32},0,-1,1
443,nsIConsoleMessage,{41bd8784-1dd2-11b2-9553-8606958fffe1},0,-1,1
444,imgILoad,{e6273acc-1dd1-11b2-a08b-824ad1b1628d},0,-1,1
445,nsISAXLocator,{7a307c6c-6cc9-11da-be43-001422106990},0,-1,1
446,nsIDOMSVGMaskElement,{fdd7039c-35b6-465a-b7a3-c98a815b583e},0,-1,1
447,inIDOMView,{fbb67442-27a3-483c-8eb2-29c3eed7514c},0,-1,1
448,extIApplication,{ba9442ee-7070-44fb-8157-c111e1fa70b6},0,-1,1
449,nsIDOMHTMLCollection,{a6cf9083-15b3-11d2-932e-00805f8add32},0,-1,1
450,nsPIDNSService,{a26c5b45-7707-4412-bbc1-2462b890848d},0,-1,1
451,nsIFeedPerson,{29cbd45f-f2d3-4b28-b557-3ab7a61ecde4},0,-1,1
452,nsIX509Cert3,{aa67eb02-ccc8-4f55-84da-bcafff9265ae},0,-1,1
453,nsIDOMEvent,{a66b7b80-ff46-bd97-0080-5f8ae38add32},0,-1,1
454,nsINavHistoryService,{8b258ff6-b591-4da5-8b7c-0665b27d09cc},0,-1,1
455,nsIMIMEInfo,{cd7083f8-5fe9-4248-bb09-0b0e2982fde8},0,-1,1
456,nsISerializable,{91cca981-c26d-44a8-bebe-d9ed4891503a},0,-1,1
457,nsINonBlockingAlertService,{e800ef97-ae37-46b7-a46c-31fbe79657ea},0,-1,1
458,nsICertificateDialogs,{a03ca940-09be-11d5-ac5d-000064657374},0,-1,1
459,nsIInputIterator,{85585e12-1dd2-11b2-a930-f6929058269a},0,-1,1
460,nsIVersionComparator,{e6cd620a-edbb-41d2-9e42-9a2ffc8107f3},0,-1,1
461,nsIDOMHTMLMetaElement,{a6cf908a-15b3-11d2-932e-00805f8add32},0,-1,1
462,mozIStorageStatementParams,{e65fe6e2-2643-463c-97e2-27665efe2386},0,-1,1
463,nsITransactionManager,{58e330c2-7b48-11d2-98b9-00805f297d89},0,-1,1
464,fuelIWindow,{207edb28-eb5e-424e-a862-b0e97c8de866},0,-1,1
465,nsIExtendedExpatSink,{0c2dc80f-7aa4-467a-9454-b89dba0e0779},0,-1,1
466,nsIAsyncStreamCopier,{72e515de-a91e-4154-bb78-e5244cbaae74},0,-1,1
467,nsIDOMSVGPathSegLinetoAbs,{5c7ba7b0-c7c5-4a7b-bc1c-2d784153be77},0,-1,1
468,nsIDOMSVGAnimatedEnumeration,{73b101bd-797b-470f-9308-c24c64278bcd},0,-1,1
469,nsIAutoCompleteSearch,{de8db85f-c1de-4d87-94ba-7844890f91fe},0,-1,1
470,nsIWebBrowserStream,{86d02f0e-219b-4cfc-9c88-bd98d2cce0b8},0,-1,1
471,nsIXULTreeBuilderObserver,{a5480e0d-ac7c-42e5-aca5-d7f0bbffa207},0,-1,1
472,nsIXPTLoader,{368a15d9-17a9-4c2b-ac3d-a35b3a22b876},0,-1,1
473,nsIContentFilter,{c18c49a8-62f0-4045-9884-4aa91e388f14},0,-1,1
474,nsIASN1Tree,{c727b2f2-1dd1-11b2-95df-f63c15b4cd35},0,-1,1
475,extISessionStorage,{0787ac44-29b9-4889-b97f-13573aec6971},0,-1,1
476,nsIComponentManagerObsolete,{8458a740-d5dc-11d2-92fb-00e09805570f},0,-1,1
477,mozIStorageStatementRow,{02eeaf95-c3db-4182-9340-222c29f68f02},0,-1,1
478,nsIInterfaceInfo,{215dbe04-94a7-11d2-ba58-00805f8a5dd7},0,-1,0
479,nsIShellService,{bb477da4-dddf-4106-a562-f06c85c7f9a8},0,-1,1
480,mozISpellCheckingEngine,{43987f7b-0faa-4019-811e-42becac73fc5},0,-1,1
481,nsICommandHandlerInit,{731c6c50-67d6-11d4-9529-0020183bf181},0,-1,1
482,mozIStorageDataSet,{57826606-3c8a-4243-9f2f-cb3fe6e91148},0,-1,1
483,nsISocketTransportService,{185b3a5d-8729-436d-9693-7bdccb9c2216},0,-1,1
484,nsIJSContextStack,{c67d8270-3189-11d3-9885-006008962422},0,-1,0
485,nsIWindowCreator2,{f673ec81-a4b0-11d6-964b-eb5a2bf216fc},0,-1,1
486,nsIDOMNSHTMLFrameElement,{d67bd267-f984-4993-b378-95851b71f0a3},0,-1,1
487,nsIProfile,{02b0625a-e7f3-11d2-9f5a-006008a6efe9},0,-1,1
488,nsIDOMSVGRect,{5b912111-c10e-498f-a44c-c713c1843007},0,-1,1
489,nsIDOMSVGPathSegMovetoRel,{58ca7e86-661a-473a-96de-89682e7e24d6},0,-1,1
490,nsISystemProxySettings,{a9f3ae38-b769-4e0b-9317-578388e326c9},0,-1,1
491,nsIPromptService,{1630c61a-325e-49ca-8759-a31b16c47aa5},0,-1,1
492,nsIJARProtocolHandler,{92c3b42c-98c4-11d3-8cd9-0060b0fc14a3},0,-1,1
493,nsIRefreshURI,{cb0ad623-6b46-4c09-a473-c1d6ca63d3c7},0,-1,1
494,nsIDOMAttr,{a6cf9070-15b3-11d2-932e-00805f8add32},0,-1,1
495,nsIDOMXPathExpression,{75506f82-b504-11d5-a7f2-ca108ab8b6fc},0,-1,1
496,nsIWebNavigation,{f5d9e7b0-d930-11d3-b057-00a024ffc08c},0,-1,1
497,nsIJVMPluginInstance,{a0c057d0-01c1-11d2-815b-006008119d7a},0,-1,1
498,nsIHttpEventSink,{9475a6af-6352-4251-90f9-d65b1cd2ea15},0,-1,1
499,nsIDOMSVGAnimatedBoolean,{7e325385-cc82-4763-bd14-e2c92edd5462},0,-1,1
500,jsdIFilterEnumerator,{54382875-ed12-4f90-9a63-1f0498d0a3f2},0,-1,1
501,nsITreeColumn,{ae835ecf-6b32-4660-9b43-8a270df56e02},0,-1,1
502,nsIAutoCompletePopup,{1b9d7d8a-6dd0-11dc-8314-0800200c9a66},0,-1,1
503,nsIFullScreen,{9854976e-1dd1-11b2-8350-e6d35099fbce},0,-1,1
504,nsIAccessibleCaretMoveEvent,{b9076dce-4cd3-4e3d-a7f6-7f33a7f40c31},0,-1,1
505,nsIExtensionManager,{cc58fd12-0a61-4336-876b-617c330e157e},0,-1,1
506,mozIStorageFunction,{9ff02465-21cb-49f3-b975-7d5b38ceec73},0,-1,1
507,nsIDOMPkcs11,{9fd42950-25e7-11d4-8a7d-006008c844c3},0,-1,1
508,nsIDocumentEncoderNodeFixup,{e770c650-b3d3-11da-a94d-0800200c9a66},0,-1,1
509,nsIToolkitProfile,{7422b090-4a86-4407-972e-75468a625388},0,-1,1
510,nsIWebBrowserPrint,{9a7ca4b0-fbba-11d4-a869-00105a183419},0,-1,1
511,nsPIAccessible,{893ee16d-c157-4d5f-b236-60b3b2bef6a5},0,-1,0
512,nsISelectionPrivate,{b416c692-eeb8-4186-addd-c444e81b68e5},0,-1,1
513,nsIWebBrowserFindInFrames,{e0f5d182-34bc-11d5-be5b-b760676c6ebc},0,-1,1
514,nsIBrowserHistory,{96602bf3-de2a-42ed-812f-a83b130e6299},0,-1,1
515,nsIMemoryReporter,{d298b942-3e66-4cd3-9ff5-46abc69147a7},0,-1,1
516,nsINavHistoryFullVisitResultNode,{c49fd9d5-56e2-43eb-932c-f933f28cba85},0,-1,1
517,nsIAddonSearchResult,{a549a714-2ada-4bb9-8a47-be26e73d49a5},0,-1,1
518,nsIDirIndexListener,{fae4e9a8-1dd1-11b2-b53c-8f3aa1bbf8f5},0,-1,1
519,nsISAXContentHandler,{2a99c757-dfee-4806-bff3-f721440412e0},0,-1,1
520,nsIExternalHelperAppService,{9e456297-ba3e-42b1-92bd-b7db014268cb},0,-1,1
521,nsIDOMSVGTitleElement,{524564b0-13a3-459b-bbec-ad66aea9f789},0,-1,1
522,nsICurrentCharsetListener,{cf9428c1-df50-11d3-9d0c-0050040007b2},0,-1,1
523,nsISocketProvider,{00b3df92-e830-11d8-d48e-0004e22243f8},0,-1,1
524,nsIThreadObserver,{81d0b509-f198-4417-8020-08eb4271491f},0,-1,1
525,nsIStringInputStream,{450cd2d4-f0fd-424d-b365-b1251f80fd53},0,-1,1
526,nsIPhonetic,{bc6ea726-ab56-46b6-a21a-aa7b76d6818f},0,-1,1
527,nsIDOMLoadStatus,{2cb53a8a-d2f4-4ddf-874f-3bc2d595c41a},0,-1,1
528,nsIFrameLoaderOwner,{feaf9285-05ac-4898-a69f-c3bd350767e4},0,-1,1
529,nsIInterfaceInfoSuperManager,{0ee22850-bc6a-11d5-9134-0010a4e73d9a},0,-1,0
530,nsIThread,{9c889946-a73a-4af3-ae9a-ea64f7d4e3ca},0,-1,1
531,nsIDOMCSSValue,{009f7ea5-9e80-41be-b008-db62f10823f2},0,-1,1
532,nsICookieAcceptDialog,{3f2f0d2c-bdea-4b5a-afc6-fcf18f66b97e},0,-1,1
533,nsIDOMSVGFEBlendElement,{8f4daf4c-de2d-450f-a373-449ad62e3800},0,-1,1
534,nsIMenuBoxObject,{f5099746-5049-4e81-a03e-945d5110fee2},0,-1,1
535,nsIDOMSVGFEFuncRElement,{85719a5d-9688-4c5f-bad5-c21847515200},0,-1,1
536,nsIDOMNSEvent,{e565d518-4510-407f-a3d9-3b4107549c6d},0,-1,1
537,nsIDOMSVGPathSegClosePath,{4970505f-2cc0-4afa-92e6-0cf4bdbf5a53},0,-1,1
538,nsIDOMLSException,{1cc8e4b3-1dbb-4adc-a913-1527bf67748c},0,-1,1
539,nsIDOMSVGFEGaussianBlurElement,{43ff8d42-3380-4dbd-a916-7c2daa3ed7f4},0,-1,1
540,nsIDOMHTMLFieldSetElement,{a6cf9097-15b3-11d2-932e-00805f8add32},0,-1,1
541,nsIDOMSVGLinearGradientElement,{7e15fce5-b208-43e1-952a-c570ebad0619},0,-1,1
542,nsIDOMStorage,{95cc1383-3b62-4b89-aaef-1004a513ef47},0,-1,1
543,nsIStreamLoader,{8ea7e890-8211-11d9-8bde-f66bad1e3f3a},0,-1,1
544,nsIDOMWindowCollection,{a6cf906f-15b3-11d2-932e-00805f8add32},0,-1,1
545,nsIDOMSVGFEConvolveMatrixElement,{42109b58-a8c1-4078-b44c-ec1d5d6b9574},0,-1,1
546,nsISSLStatus,{cfede939-def1-49be-81ed-d401b3a07d1c},0,-1,1
547,nsITextScroll,{067b28a0-877f-11d3-af7e-00a024ffc08c},0,-1,1
548,nsIPermission,{28f16d80-157b-11d5-a542-0010a401eb10},0,-1,1
549,nsIBidirectionalEnumerator,{75f158a0-cadd-11d2-8cca-0060b0fc14a3},0,-1,0
550,nsIDragSession,{cba22c53-fcce-11d2-96d4-0060b0fb9956},0,-1,1
551,nsIUrlClassifierLookupCallback,{f1dc83c6-ad43-4f0f-a809-fd43de7de8a4},0,-1,0
552,nsIDialogParamBlock,{f76c0901-437a-11d3-b7a0-e35db351b4bc},0,-1,1
553,nsIFIXptrEvaluator,{50d28211-8fb8-4323-b93d-08a6e80e559e},0,-1,0
554,nsIDOMXPathException,{75506f89-b504-11d5-a7f2-ca108ab8b6fc},0,-1,1
555,nsIDOMXULCommandEvent,{f9fa8205-a988-4828-9228-f3332d5475ac},0,-1,1
556,nsISHistory,{9883609f-cdd8-4d83-9b55-868ff08ad433},0,-1,1
557,nsIAutoCompleteBaseResult,{e6396544-921d-4776-aa62-8bf2dc1ae058},0,-1,0
558,nsIDOMCrypto,{d2b675a5-f05b-4172-bac2-24cc39ffd398},0,-1,1
559,nsIAccessible,{004b6882-2df1-49df-bb5f-0fb81a5b1edf},0,-1,1
560,nsITransaction,{58e330c1-7b48-11d2-98b9-00805f297d89},0,-1,1
561,nsISimpleUnicharStreamFactory,{8238cd2e-e8e3-43e8-b556-56e21389c766},0,-1,1
562,nsIDOMMutationEvent,{8e440d86-886a-4e76-9e59-c13b939c9a4b},0,-1,1
563,nsIDOMSVGTextPositioningElement,{5d052835-8cb0-442c-9754-a8e616db1f89},0,-1,1
564,nsIDOMNSHTMLAnchorElement,{a6cf911c-15b3-11d2-932e-00805f8add32},0,-1,1
565,nsICookieStorage,{c8c05100-cfdb-11d2-bab8-b088e084e5bc},0,-1,0
566,nsIComponentRegistrar,{2417cbfe-65ad-48a6-b4b6-eb84db174392},0,-1,1
567,nsIFileChannel,{06169120-136d-45a5-b535-498f1f755ab7},0,-1,1
568,nsIPluginHost,{2af1c32d-38dd-4f72-b0ab-24697d836e61},0,-1,1
569,nsIDOMSVGPathElement,{2b19e692-3338-440f-a998-3cb1e8474999},0,-1,1
570,nsIModule,{7392d032-5371-11d3-994e-00805fd26fee},0,-1,1
571,nsIURIFixup,{773081ac-9f81-4bdb-9e7a-5e87b4361f09},0,-1,1
572,nsICacheListener,{638c3848-778b-4851-8ff3-9400f65b8773},0,-1,1
573,mozIStorageValueArray,{07b5b93e-113c-4150-863c-d247b003a55d},0,-1,1
574,nsIStreamCipher,{1d507cd6-1630-4710-af1b-4012dbcc514c},0,-1,1
575,nsIDOMSVGAnimatedRect,{ca45959e-f1da-46f6-af19-1ecdc322285a},0,-1,1
576,nsIZipReader,{5cce7f53-23b3-47f8-be05-122c0ba703fd},0,-1,1
577,nsIDOMDocumentEvent,{46b91d66-28e2-11d4-ab1e-0010830123b4},0,-1,1
578,nsICMSMessageErrors,{f2aec680-60a0-49f0-afe5-6cf1d3f15e0d},0,-1,1
579,nsIDOMSVGAngle,{58b6190e-37b3-412a-ba02-1d5ad6c6ea7c},0,-1,1
580,nsIProxiedProtocolHandler,{0a24fed4-1dd2-11b2-a75c-9f8b9a8f9ba7},0,-1,1
581,nsISupportsString,{d79dc970-4a1c-11d3-9890-006008962422},0,-1,1
582,nsIDOMNSFeatureFactory,{dc5ba787-b648-4b01-a8e7-b293ffb044ef},0,-1,1
583,nsISafeOutputStream,{5f914307-5c34-4e1f-8e32-ec749d25b27a},0,-1,1
584,inIDeepTreeWalker,{91fca0e9-99d6-406b-9d78-4c96f11e9ee4},0,-1,1
585,nsIComponentManager,{a88e5a60-205a-4bb1-94e1-2628daf51eae},0,-1,1
586,nsIDocShellTreeItem,{09b54ec1-d98a-49a9-bc95-3219e8b55089},0,-1,1
587,nsIDOMCSSFontFaceRule,{a6cf90bb-15b3-11d2-932e-00805f8add32},0,-1,1
588,nsIPrincipal,{b8268b9a-2403-44ed-81e3-614075c92034},0,-1,1
589,nsIAlertsService,{e177399e-2e31-4019-aed3-cba63ce9fa99},0,-1,1
590,nsITaggingService,{e39cea60-7e6d-4c8b-80a3-997af1c2cbcb},0,-1,1
591,nsIDOMDocumentView,{1acdb2ba-1dd2-11b2-95bc-9542495d2569},0,-1,1
592,nsICMSMessage2,{a99a3203-39e3-45e1-909c-175b0e471c2b},0,-1,0
593,nsIAutoCompleteMdbResult,{f7e7b341-2d5c-4d04-9f51-496cb2ce178c},0,-1,0
594,nsIPrefBranch2,{74567534-eb94-4b1c-8f45-389643bfc555},0,-1,1
595,inISearchObserver,{46226d9b-e398-4106-8d9b-225d4d0589f5},0,-1,1
596,nsIDOMSVGAnimatedLength,{a52f0322-7f4d-418d-af6d-a7b14abd5cdf},0,-1,1
597,nsIPasswordManager,{173562f0-2173-11d5-a54c-0010a401eb10},0,-1,1
598,nsISupportsID,{d18290a0-4a1c-11d3-9890-006008962422},0,-1,1
599,nsIRollupListener,{ee6efe03-77dc-4aac-a6a8-905731a1796e},0,-1,0
600,nsIResProtocolHandler,{067ca872-e947-4bd6-8946-a479cb6ba5dd},0,-1,1
601,nsIServerSocketListener,{836d98ec-fee2-4bde-b609-abd5e966eabd},0,-1,1
602,nsIAccessNode,{71a3b4e7-e83d-45cf-a20e-9ce292bcf19f},0,-1,1
603,nsIDOMSVGPathSegCurvetoQuadraticAbs,{b7aef0f0-2830-4145-b04f-fe05789ccf8a},0,-1,1
604,nsIDocumentStateListener,{050cdc00-3b8e-11d3-9ce4-a458f454fcbc},0,-1,1
605,nsISupportsPRInt64,{e3cb0ff0-4a1c-11d3-9890-006008962422},0,-1,1
606,nsIXPCComponents_ID,{7994a6e0-e028-11d3-8f5d-0010a4e73d9a},0,-1,1
607,nsITooltipTextProvider,{b128a1e6-44f3-4331-8fbe-5af360ff21ee},0,-1,1
608,nsIXPCComponents_Classes,{978ff520-d26c-11d2-9842-006008962422},0,-1,1
609,nsIFastLoadService,{759e475e-0c23-4dbf-b1b8-78c9369e3072},0,-1,1
610,jsdIProperty,{b8816e56-1dd1-11b2-81dc-8ba99a833d9e},0,-1,1
611,nsIDOMHTMLLegendElement,{a6cf9098-15b3-11d2-932e-00805f8add32},0,-1,1
612,nsIAutoConfig,{80db54ae-13f2-11d5-be44-00108335a220},0,-1,0
613,nsIDOMNSHTMLAreaElement2,{1859b16a-7c16-4ab7-bdb9-52792ba16cc1},0,-1,1
614,nsIDOMSVGDefsElement,{a2e86036-f04c-4013-9f74-e7090a0aac0a},0,-1,1
615,nsIExceptionManager,{efc9d00b-231c-4feb-852c-ac017266a415},0,-1,1
616,nsIBaseWindow,{046bc8a0-8015-11d3-af70-00a024ffc08c},0,-1,1
617,nsIFastLoadFileControl,{8a1e2c63-af50-4147-af7e-26289dc180dd},0,-1,1
618,nsIPrefService,{decb9cc7-c08f-4ea5-be91-a8fc637ce2d2},0,-1,1
619,nsIDOMLSProgressEvent,{b9a2371f-70e9-4657-b0e8-28e15b40857e},0,-1,1
620,nsIAccessibleHyperText,{d56bd454-8ff3-4edc-b266-baeada00267b},0,-1,1
621,nsIMicrosummaryGenerator,{05b48344-d0a7-427e-934e-9a6e0d5ecced},0,-1,1
622,nsIContentURIGrouper,{4bb38cb4-c3cb-4d17-9799-1b3132b39723},0,-1,1
623,nsIJVMAuthTools,{82274a32-a196-42ee-8e3b-fcb73e339518},0,-1,0
624,nsILoadGroup,{3de0a31c-feaf-400f-9f1e-4ef71f8b20cc},0,-1,1
625,fuelIBrowserTab,{3073ceff-777c-41ce-9ace-ab37268147c1},0,-1,1
626,nsIHXPlayer,{fa21776e-8d69-4462-8c49-baf6c3e0ae20},1,-1,1
627,nsIContextMenuInfo,{2f977d56-5485-11d4-87e2-0010a4e75ef2},0,-1,1
628,nsIThreadJSContextStack,{a1339ae0-05c1-11d4-8f92-0010a4e73d9a},0,-1,0
629,nsIScriptChannel,{33234b99-9588-4c7d-9da6-86b8b7cba565},0,-1,1
630,nsIDOMBarProp,{9eb2c150-1d56-11d3-8221-0060083a0bcf},0,-1,1
631,nsIProfileStartup,{048e5ca1-0eb7-4bb1-a9a2-a36f7d4e0e3c},0,-1,1
632,nsIPluginInstanceOwner,{2e6cc23b-7d4e-4b0a-ad45-f2281c937f5c},0,-1,0
633,nsICookiePromptService,{72f8bb14-2810-4f38-8d0d-290c5401f54e},0,-1,1
634,nsIDOMLSLoadEvent,{6c16a810-a37d-4859-b557-337341631aee},0,-1,1
635,nsIDOMNodeList,{a6cf907d-15b3-11d2-932e-00805f8add32},0,-1,1
636,nsIPrintSettingsService,{841387c8-72e6-484b-9296-bf6eea80d58a},0,-1,1
637,nsIDOMSVGFEColorMatrixElement,{0e966878-ebf1-4455-86fd-f4c7b1f24777},0,-1,1
638,nsIDOMLoadStatusList,{d58bc0cf-e35c-4d22-9e21-9ada8fc4203a},0,-1,1
639,nsPIAccessNode,{b3507946-4a44-4e40-b66c-f23e320997c5},0,-1,1
640,nsIXPCScriptNotify,{b804504d-0025-4d6b-8ced-d94e41102a7f},0,-1,0
641,nsIDOMSVGFEFuncAElement,{fa48511c-283a-437f-9507-c309ac6f0f57},0,-1,1
642,nsIObjectInputStream,{6c248606-4eae-46fa-9df0-ba58502368eb},0,-1,1
643,nsIDOMSVGFETileElement,{ed042a81-39fc-4c89-9385-75758a2434b5},0,-1,1
644,nsIDOMGetSVGDocument,{0401f299-685b-43a1-82b4-ce1a0011598c},0,-1,1
645,nsIDirIndex,{23bbabd0-1dd2-11b2-86b7-aad68ae7d7e0},0,-1,1
646,nsIEditorBoxObject,{e3800a23-5b83-49aa-b18c-efa1ac5416e0},0,-1,1
647,nsIPasswordManagerInternal,{a448531f-dc92-4dc1-9012-da841febcbe0},0,-1,1
648,nsIDOMNSHTMLHRElement,{19b5879f-c125-447c-aaaf-719de3ef221a},0,-1,1
649,nsIDOMSVGFEFloodElement,{2743af95-28c5-429d-9812-12b7b017887e},0,-1,1
650,nsIFormFillController,{07f0a0dc-f6e9-4cdd-a55f-56d770523a4c},0,-1,1
651,nsIAuthPrompt,{358089f9-ee4b-4711-82fd-bcd07fc62061},0,-1,1
652,nsIRecentBadCertsService,{a5ae8b05-a76e-408f-b0ba-02a831265749},0,-1,1
653,nsIDOMXULMenuListElement,{3d49950e-04f9-4e35-a9a0-ffd51356a674},0,-1,1
654,nsIDOMHTMLObjectElement,{a6cf90ac-15b3-11d2-932e-00805f8add32},0,-1,1
655,nsIViewSourceChannel,{8b77d6e2-2ae9-11d5-be57-000064657374},0,-1,0
656,nsISyncLoadDOMService,{8095998d-ae1c-4cfa-9b43-0973e5d77eb0},0,-1,1
657,nsIDOMXULDescriptionElement,{c7b0b43c-1dd1-11b2-9e1c-ce5f6a660630},0,-1,1
658,nsIURL,{d6116970-8034-11d3-9399-00104ba0fd40},0,-1,1
659,nsIMultiplexInputStream,{a076fd12-1dd1-11b2-b19a-d53b5dffaade},0,-1,1
660,nsIClipboardCommands,{b8100c90-73be-11d2-92a5-00105a1b0d64},0,-1,1
661,nsIThreadEventFilter,{a0605c0b-17f5-4681-b8cd-a1cd75d42559},0,-1,1
662,nsIXPCSecurityManager,{31431440-f1ce-11d2-985a-006008962422},0,-1,0
663,nsIDragDropHandler,{4f418f58-f834-4736-a755-e0395bedca9d},0,-1,1
664,nsIASN1Object,{ba8bf582-1dd1-11b2-898c-f40246bc9a63},0,-1,1
665,nsIDocShellTreeNode,{37f1ab73-f224-44b1-82f0-d2834ab1cec0},0,-1,1
666,nsIWebBrowserChrome,{ba434c60-9d52-11d3-afb0-00a024ffc08c},0,-1,1
667,nsIFastLoadWriteControl,{2ad6e9e6-1379-4e45-a899-a54b27ff915c},0,-1,1
668,nsIWebContentHandlerInfo,{eb361098-5158-4b21-8f98-50b445f1f0b2},0,-1,1
669,nsIPluginManager2,{d2962dc0-4eb6-11d2-8164-006008119d7a},0,-1,0
670,nsIByteRangeRequest,{c1b1f426-7e83-4759-9f88-0e1b17f49366},0,-1,1
671,nsIPrintStatusFeedback,{19855dff-3248-4902-b196-93ee4c477880},0,-1,1
672,nsIPluginTagInfo2,{6a49c9a0-019b-11d2-815b-006008119d7a},0,-1,0
673,nsIDOMRange,{a6cf90ce-15b3-11d2-932e-00805f8add32},0,-1,1
674,nsIAccessibleStates,{7fe1ee90-edaa-43f1-9f3b-071099b51f08},0,-1,1
675,nsIExceptionProvider,{0577744c-c1d2-47f2-8bcc-ce7a9e5a88fc},0,-1,1
676,nsIDOMJSNavigator,{4b4f8316-1dd2-11b2-b265-9a857376d159},0,-1,1
677,nsIXULRuntime,{2848ab92-d912-11d9-89f7-001124787b2e},0,-1,1
678,nsIDOM3EventTarget,{3e9c01a7-de97-4c3b-8294-b4bd9d7056d1},0,-1,1
679,nsIJVMConfig,{3e333e20-b190-42d8-b993-d5fa435e46c4},0,-1,1
680,nsIDOMXPathNSResolver,{75506f83-b504-11d5-a7f2-ca108ab8b6fc},0,-1,1
681,nsIFTPChannel,{2315d831-8b40-446a-9138-fe09ebb1b720},0,-1,1
682,nsIDOMCSSValueList,{8f09fa84-39b9-4dca-9b2f-db0eeb186286},0,-1,1
683,nsIProcess,{9da0b650-d07e-4617-a18a-250035572ac8},0,-1,1
684,nsIEffectiveTLDService,{6852369e-baa9-4c9a-bbcd-5123fc54a297},0,-1,1
685,nsIToolkitChromeRegistry,{94490b3f-f094-418e-b1b9-73878d29bff3},0,-1,1
686,nsIDOMSVGPathSegCurvetoQuadraticSmoothRel,{ac0b2007-04e4-4e70-a0e0-294f374b29c4},0,-1,1
687,nsIPropertyBag,{bfcd37b0-a49f-11d5-910d-0010a4e73d9a},0,-1,1
688,nsIFeedElementBase,{5215291e-fa0a-40c2-8ce7-e86cd1a1d3fa},0,-1,1
689,nsIINIParserFactory,{ccae7ea5-1218-4b51-aecb-c2d8ecd46af9},0,-1,1
690,nsIFormSigningDialog,{4fe04d6d-4b66-4023-a0bc-b43ce68b3e15},0,-1,1
691,jsdIStackFrame,{b6d50784-1dd1-11b2-a932-882246c6fe45},0,-1,1
692,nsIAccessibleImage,{09086623-0f09-4310-ac56-c2cda7c29648},0,-1,1
693,nsILiveTitleNotificationSubject,{f9e577a8-19d9-4ca0-a140-b9e43f014470},0,-1,1
694,nsITypeAheadFind,{0749a445-19d3-4eb9-9d66-78eca8c6f604},0,-1,1
695,nsIScriptablePlugin,{f1a12bba-1dd1-11b2-a95f-cdc118605e92},0,-1,0
696,nsIInlineSpellChecker,{f5d1ec9e-4d30-11d8-8053-da0cc7df1f20},0,-1,1
697,nsIProxyAutoConfig,{a42619df-0a1c-46fb-8154-0e9b8f8f1ea8},0,-1,1
698,nsIDOMStorageManager,{6e4bc25e-f056-4c6c-b27e-89152ca91834},0,-1,1
699,nsIAuthPrompt2,{447fc780-1d28-412a-91a1-466d48129c65},0,-1,1
700,nsIProfileChangeStatus,{2f977d43-5485-11d4-87e2-0010a4e75ef2},0,-1,1
701,nsIDOMSVGComponentTransferFunctionElement,{cb615c0f-8d4a-4e30-9695-a3dd6f4216ee},0,-1,1
702,nsISupportsArray,{791eafa0-b9e6-11d1-8031-006008159b5a},0,-1,1
703,nsPIWindowWatcher,{3aaad312-e09d-4010-a013-78ef653dac99},0,-1,0
704,nsIDownloadHistory,{202533cd-a8f1-4ee4-8d20-3a6a0d2c6c51},0,-1,1
705,nsIMemoryReporterManager,{63fc8fbd-509b-4fdb-93b4-2e6caeeddab1},0,-1,1
706,nsIWebBrowserPersist,{dd4e0a6a-210f-419a-ad85-40e8543b9465},0,-1,1
707,nsIErrorService,{e72f94b2-5f85-11d4-9877-00c04fa0cf4a},0,-1,1
708,nsIPluginTag,{af36bf4d-5652-413f-a78c-745b702f2381},0,-1,1
709,nsIXULTemplateBuilder,{a583b676-5b02-4f9c-a0c9-cb850cb99818},0,-1,1
710,nsIXPointerSchemeContext,{781f4aa1-ebb3-4667-b1c2-2b35e94c4281},0,-1,0
711,nsISemanticUnitScanner,{9f620be4-e535-11d6-b254-00039310a47a},0,-1,1
712,nsIDOMNSUIEvent,{a6cf90c4-15b3-11d2-932e-00805f8add32},0,-1,1
713,nsIDOMSVGTextPathElement,{5c29a76c-3489-48fe-b9ea-ea0f5b196dff},0,-1,1
714,nsIClientAuthDialogs,{fa4c7520-1433-11d5-ba24-00108303b117},0,-1,1
715,nsIDOMBeforeUnloadEvent,{da19e9dc-dea2-4a1d-a958-9be375c9799c},0,-1,1
716,nsIDOMNSHTMLElement,{eac0a4ee-2e4f-403c-9b77-5cf32cfb42f7},0,-1,1
717,nsIDOMHTMLBodyElement,{a6cf908e-15b3-11d2-932e-00805f8add32},0,-1,1
718,nsIEnumerator,{ad385286-cbc4-11d2-8cca-0060b0fc14a3},0,-1,1
719,nsIBufferedInputStream,{616f5b48-da09-11d3-8cda-0060b0fc14a3},0,-1,1
720,nsIX509CertList,{a539759b-e22d-462f-94ea-2915b11b33e8},0,-1,1
721,nsICMSDecoder,{65244a06-a342-11d5-ba47-00108303b117},0,-1,0
722,nsIDOMWindow2,{73c5fa35-3add-4c87-a303-a850ccf4d65a},0,-1,1
723,nsISMimeVerificationListener,{56310af6-dffc-48b4-abca-85eae4059064},0,-1,0
724,nsIInputStreamChannel,{274c4d7a-2447-4ceb-a6de-80db1b83f5d2},0,-1,1
725,nsIDOMKeyEvent,{028e0e6e-8b01-11d3-aae7-0010838a3123},0,-1,1
726,nsISignatureVerifier,{dea87f65-e91e-4119-aa13-aaa2be80cac2},0,-1,0
727,nsIDOMSVGForeignObjectElement,{fd9c9871-23fd-48eb-a65b-3842e9b0acbd},0,-1,1
728,nsIDOMCSSUnknownRule,{a6cf90d0-15b3-11d2-932e-00805f8add32},0,-1,1
729,nsICommandController,{ebe55080-c8a9-11d5-a73c-dd620d6e04bc},0,-1,1
730,nsIIOService2,{d44fe6d4-ee35-4789-886a-eb8f0554d04e},0,-1,1
731,nsIPluginManager,{da58ad80-4eb6-11d2-8164-006008119d7a},0,-1,1
732,nsIPrintSession,{2f977d52-5485-11d4-87e2-0010a4e75ef2},0,-1,0
733,nsIStreamTransportService,{8268d474-efbf-494f-a152-e8a8616f4e52},0,-1,1
734,nsIDOMSVGFilterElement,{9e81d4ae-190c-4b9d-a076-ebc52a7bf231},0,-1,1
735,nsIAccessibleProvider,{3f7f9194-c625-4a85-8148-6d92d34897fa},0,-1,1
736,nsIDOMHTMLButtonElement,{a6cf9095-15b3-11d2-932e-00805f8add32},0,-1,1
737,nsIWindowlessPluginInstancePeer,{57b4e2f0-019b-11d2-815b-006008119d7a},0,-1,0
738,nsIDOMNSHTMLInputElement,{df3dc133-d77a-482f-8364-8e40df978a33},0,-1,1
739,nsIDOMSVGFEDistantLightElement,{02141672-7f2c-412a-a7d7-4caa194842e9},0,-1,1
740,nsIIFrameBoxObject,{30114c44-d398-44a5-9e01-b48b711291cd},0,-1,1
741,nsIOfflineCacheUpdateObserver,{0aa38757-999c-44d6-bdb4-7dd32634fa83},0,-1,1
742,nsIDOMHTMLTableColElement,{a6cf90b4-15b3-11d2-932e-00805f8add32},0,-1,1
743,nsIScriptEventManager,{b6427ace-dc77-495b-ab21-43baeb52bc27},0,-1,0
744,mozIStorageProgressHandler,{a3a6fcd4-bf89-4208-a837-bf2a73afd30c},0,-1,1
745,nsIDOMSVGPathSegCurvetoQuadraticRel,{c46eb661-9c05-4d46-9b2a-c2ae5b166060},0,-1,1
746,nsIDOMSVGTSpanElement,{4a23cb1f-cf1e-437e-9524-8756f7928b2e},0,-1,1
747,nsIControllerContext,{47b82b60-a36f-4167-8072-6f421151ed50},0,-1,1
748,nsIUrlClassifierStreamUpdater,{daf3038a-556c-47d3-a3d2-36caa9a762a0},0,-1,1
749,nsIDOMSVGClipPathElement,{0c3f45a4-e6d0-44e7-a2f8-d128ecf1db9b},0,-1,1
750,nsICertTree,{a8cd1c89-a901-4735-831b-7198b7b8b6b1},0,-1,1
751,nsIUTF8StringEnumerator,{9bdf1010-3695-4907-95ed-83d0410ec307},0,-1,1
752,nsIExpatSink,{f61c56b5-ea5b-42b4-ad3c-17416e72e238},0,-1,1
753,nsIWebBrowserSetup,{f15398a0-8018-11d3-af70-00a024ffc08c},0,-1,1
754,extIEvents,{3a8ec9d0-ab19-11db-abbd-0800200c9a66},0,-1,1
755,nsISOCKSSocketInfo,{8f755c44-1dd2-11b2-a613-91117453fa95},0,-1,1
756,nsIDOMSVGTransformList,{cee0a9d4-8554-4bf6-bf9b-7d0cebb4269d},0,-1,1
757,nsIDOMEventListener,{df31c120-ded6-11d1-bd85-00805f8ae3f4},0,-1,1
758,nsPICertNotification,{42cd7162-ea4a-4088-9888-63ea5095869e},0,-1,0
759,nsIDOM3TypeInfo,{2a1088c7-499a-49a7-9d3b-1970d21532ab},0,-1,1
760,nsIBidirectionalIterator,{948defaa-1dd1-11b2-89f6-8ce81f5ebda9},0,-1,1
761,nsIEditorObserver,{a6cf9125-15b3-11d2-932e-00805f8add32},0,-1,1
762,nsIPrefSecurityCheck,{c73c9a05-92ce-46e1-8f69-90a2a3a36104},0,-1,0
763,nsICertVerificationListener,{6684bce9-50db-48e1-81b7-98102bf81357},0,-1,1
764,nsIDOMMessageEvent,{98150805-6a15-4667-815a-1a8c87cb4bbc},0,-1,1
765,nsIIOService,{bddeda3f-9020-4d12-8c70-984ee9f7935e},0,-1,1
766,nsIDOMCanvasGradient,{bbb20a59-524e-4662-981e-5e142814b20c},0,-1,1
767,nsIDOMEventGroup,{33347bee-6620-4841-8152-36091ae80c7e},0,-1,1
768,nsISidebarExternal,{4350fb73-9305-41df-a669-11d26222d420},0,-1,1
769,nsITooltipListener,{44b78386-1dd2-11b2-9ad2-e4eee2ca1916},0,-1,1
770,nsIDOMNSHTMLTextAreaElement,{ca066b44-9ddf-11d3-bccc-0060b0fc76bd},0,-1,1
771,nsIDOMSVGNumberList,{59364ec4-faf1-460f-bf58-e6a6a2769a3a},0,-1,1
772,nsIAccessibleTable,{dcc1e5c3-966e-45b2-b30a-839d35432b24},0,-1,1
773,nsIScrollable,{919e792a-6490-40b8-bba5-f9e9ad5640c8},0,-1,1
774,nsIHttpAuthenticator,{0f331436-8bc8-4c68-a124-d0253a19d06f},0,-1,1
775,nsIDOMSVGPathSegCurvetoQuadraticSmoothAbs,{ff5bbb58-b49a-450f-b91b-e50585c34b3d},0,-1,1
776,nsISAXLexicalHandler,{23c26a56-adff-440c-8caf-95c2dc2e399b},0,-1,1
777,nsISMimeCert,{66710f97-a4dd-49f1-a906-fe0ebc5924c0},0,-1,1
778,nsIINIParser,{7eb955f6-3e78-4d39-b72f-c1bf12a94bce},0,-1,1
779,nsIDOMSVGPathSegArcRel,{49d0360d-bb66-4ab9-b9b0-f49b93398595},0,-1,1
780,nsILoginInfo,{9c87a9bd-bf8b-4fae-bdb8-70513b2877df},0,-1,1
781,nsIClipboardDragDropHooks,{e03e6c5e-0d84-4c0b-8739-e6b8d51922de},0,-1,1
782,nsINavHistoryResultViewer,{e60f4429-3787-45c8-a8c0-18ef52621bbf},0,-1,1
783,nsISaveAsCharset,{33b87f70-7a9c-11d3-915c-006008a6edf6},0,-1,1
784,nsICMSSecureMessage,{14b4394a-1dd2-11b2-b4fd-ba4a194fe97e},0,-1,1
785,nsIStringBundleService,{d85a17c0-aa7c-11d2-9b8c-00805f8a16d9},0,-1,1
786,nsIXULOverlayProvider,{1d5b5b94-dc47-4050-93b7-ac092e383cad},0,-1,1
787,nsIAuthModule,{6e35dbc0-49ef-4e2c-b1ea-b72ec64450a2},0,-1,0
788,nsIStringBundleOverride,{965eb278-5678-456b-82a7-20a0c86a803c},0,-1,1
789,nsINavHistoryResult,{d1562f6f-8d5a-4042-8524-72f747a51b18},0,-1,1
790,nsIDOMDOMImplementation,{a6cf9074-15b3-11d2-932e-00805f8add32},0,-1,1
791,nsIFeedContainer,{577a1b4c-b3d4-4c76-9cf8-753e6606114f},0,-1,1
792,nsIFastLoadFileIO,{715577db-d9c5-464a-a32e-0a40c29b22d4},0,-1,1
793,nsICollation,{b0132cc0-3786-4557-9874-910d7def5f93},0,-1,1
794,nsIInterfaceInfoManager,{8b161900-be2b-11d2-9831-006008962422},0,-1,0
795,nsIGConfService,{5009acae-6973-48c3-b6d6-52c692cc5d9d},0,-1,1
796,nsIDOMSVGAnimatedNumber,{716e3b11-b03b-49f7-b82d-5383922b0ab3},0,-1,1
797,nsIXSLTProcessorObsolete,{3fbff728-2d20-11d3-aef3-00108300ff91},0,-1,1
798,nsIUUIDGenerator,{138ad1b2-c694-41cc-b201-333ce936d8b8},0,-1,1
799,nsIControllerCommandGroup,{9f82c404-1c7b-11d5-a73c-eca43ca836fc},0,-1,1
800,nsIFaviconService,{91f635a4-2531-4f3d-89ef-81403a685f44},0,-1,1
801,nsISessionStore,{58d17e12-a80f-11dc-8314-0800200c9a66},0,-1,1
802,nsIRDFBlob,{237f85a2-1dd2-11b2-94af-8122582fc45e},0,-1,1
803,nsIDOMHTMLHeadElement,{a6cf9087-15b3-11d2-932e-00805f8add32},0,-1,1
804,nsIXPCComponents_Exception,{5bf039c0-e028-11d3-8f5d-0010a4e73d9a},0,-1,1
805,nsIASN1PrintableItem,{114e1142-1dd2-11b2-ac26-b6db19d9184a},0,-1,1
806,nsIDOMNSHTMLButtonElement,{c914d7a4-63b3-4d40-943f-91a3c7ab0d4d},0,-1,1
807,nsIDOMHTMLMapElement,{a6cf90af-15b3-11d2-932e-00805f8add32},0,-1,1
808,nsIDOMHTMLBRElement,{a6cf90a5-15b3-11d2-932e-00805f8add32},0,-1,1
809,nsISupportsDouble,{b32523a0-4ac0-11d3-baea-00805f8a5dd7},0,-1,1
810,nsINSSErrorsService,{3a5c7a0f-f5da-4a8b-a748-d7c5a528f33b},0,-1,1
811,nsIProtocolProxyCallback,{a9967200-f95e-45c2-beb3-9b060d874bfd},0,-1,1
812,nsIAppShell,{501403e9-a091-4780-ba55-cfd1e21287a1},0,-1,0
813,nsIXULSortService,{f29270c8-3be5-4046-9b57-945a84dff132},0,-1,1
814,nsIDOMNSHTMLOptionCollection,{1181207b-2337-41a7-8ddf-fbe96461256f},0,-1,1
815,nsIXULTreeBuilder,{06b31b15-ebf5-4e74-a0e2-6bc0a18a3969},0,-1,1
816,nsIModifyableXPointerResult,{2dc3be2e-642d-4d7e-b3c5-f3dac51afbee},0,-1,0
817,nsIHistoryEntry,{a41661d4-1417-11d5-9882-00c04fa02f40},0,-1,1
818,nsIBrowserDOMWindow,{f9691a49-7fb3-4b54-bb11-a4f2e0b6eddb},0,-1,1
819,nsIDOMXULImageElement,{f73f4d77-a6fb-4ab5-b41e-15045a0cc6ff},0,-1,1
820,nsICommandLineHandler,{d4b123df-51ee-48b1-a663-002180e60d3b},0,-1,1
821,nsIFileURL,{d26b2e2e-1dd1-11b2-88f3-8545a7ba7949},0,-1,1
822,nsIFindService,{5060b801-340e-11d5-be5b-b3e063ec6a3c},0,-1,1
823,nsIContentDispatchChooser,{456ca3b2-02be-4f97-89a2-08c08d3ad88f},0,-1,1
824,nsIHandlerInfo,{325e56a7-3762-4312-aec7-f1fcf84b4145},0,-1,1
825,nsIDOMHTMLOptionsCollection,{bce0213c-f70f-488f-b93f-688acca55d63},0,-1,1
826,nsIDOMHTMLTableRowElement,{a6cf90b6-15b3-11d2-932e-00805f8add32},0,-1,1
827,nsIClipboardHelper,{44073a98-1dd2-11b2-8600-d0ae854dbe93},0,-1,1
828,nsIPref,{a22ad7b0-ca86-11d1-a9a4-00805f8a7ac4},0,-1,1
829,nsIReadConfig,{ba5bc4c6-1dd1-11b2-bb89-b844c6ec0339},0,-1,0
830,nsIUrlClassifierHashCompleter,{ade9b72b-3562-44f5-aba6-e63246be53ae},0,-1,1
831,nsIDOMNSDocumentStyle,{26311d10-7e24-4c7b-bb3d-17aad86f4d88},0,-1,1
832,nsIOCSPResponder,{96b2f5ae-4334-11d5-ba27-00108303b117},0,-1,1
833,nsISupportsPRInt16,{e30d94b0-4a1c-11d3-9890-006008962422},0,-1,1
834,nsIDOMSVGFEMorphologyElement,{16154319-fb5f-4473-b360-5065b6096d33},0,-1,1
835,nsILocale,{21035ee0-4556-11d3-91cd-00105aa3f7dc},0,-1,1
836,nsIUpdateItem,{f559f340-5160-420f-abc8-19b251708e7e},0,-1,1
837,nsICiter,{a6cf9102-15b3-11d2-932e-00805f8add32},0,-1,1
838,nsIUrlClassifierUpdateObserver,{bbb33c65-e783-476c-8db0-6ddb91826c07},0,-1,1
839,nsIXSLTException,{e06dfaea-92d5-47f7-a800-c5f5404d8771},0,-1,1
840,nsIFormHistoryImporter,{9e811188-6a5b-4d96-a92d-1bac66a41898},0,-1,1
841,nsISAXDTDHandler,{4d01f225-6cc5-11da-be43-001422106990},0,-1,1
842,nsILivemarkService,{0b0985c7-f34b-447a-8d52-ebfb7da94a6a},0,-1,1
843,nsIDOMSVGDocument,{12d3b664-1dd2-11b2-a7cf-ceee7e90f396},0,-1,1
844,nsIDOMParserJS,{dca92fe9-ae7a-44b7-80aa-d151216698ac},0,-1,1
845,nsIStreamConverter,{0b6e2c69-5cf5-48b0-9dfd-c95950e2cc7b},0,-1,1
846,nsIDOMHTMLUListElement,{a6cf9099-15b3-11d2-932e-00805f8add32},0,-1,1
847,nsIDOMXULContainerElement,{bc07c626-4294-43ae-9b0a-e726de0adcad},0,-1,1
848,nsIClipboardOwner,{5a31c7a1-e122-11d2-9a57-000064657374},0,-1,1
849,nsIXPointerResult,{d3992637-f474-4b65-83ed-323fe69c60d2},0,-1,1
850,nsIDOMCRMFObject,{16da46c0-208d-11d4-8a7c-006008c844c3},0,-1,1
851,nsIURI,{07a22cc0-0ce5-11d3-9331-00104ba0fd40},0,-1,1
852,nsIDOMSVGMatrix,{ec2da3ef-5a99-49ed-aaef-b5af916c14ac},0,-1,1
853,nsIUrlClassifierHashCompleterCallback,{bbd6c954-7cb4-4447-bc55-8cefd1ceed89},0,-1,1
854,nsIDOMHTMLTableElement,{a6cf90b2-15b3-11d2-932e-00805f8add32},0,-1,1
855,nsIDOMSVGEvent,{13aed1cc-a505-45d5-bbc2-0052c6bf200f},0,-1,1
856,nsIContextMenuListener2,{7fb719b3-d804-4964-9596-77cf924ee314},0,-1,1
857,nsISimpleStreamListener,{a9b84f6a-0824-4278-bae6-bfca0570a26e},0,-1,1
858,nsIDOMWindowUtils,{1cfc1a0a-e348-4b18-b61b-935c192f85c4},0,-1,1
859,nsIDOMXULPopupElement,{c32390a8-2bd8-4d1b-bf9f-1b1d0a944d19},0,-1,1
860,nsIHandlerApp,{8d298761-0963-4c90-99e2-6ea498825e82},0,-1,1
861,nsIOSChromeItem,{ddd6790a-1dd1-11b2-a804-b522643903b9},0,-1,1
862,nsIFileView,{60b320d2-1dd2-11b2-bd73-dc3575f78ddd},0,-1,1
863,nsIConsoleService,{883472a0-ea9b-11da-8ad9-0800200c9a66},0,-1,1
864,nsIDocShellTreeOwner,{bc0eb30e-656e-491e-a7ae-7f460b660c8d},0,-1,1
865,nsIContextMenuListener,{3478b6b0-3875-11d4-94ef-0020183bf181},0,-1,1
866,nsISelection2,{b515878d-3b06-433b-bc9e-5c53d2fa3eff},0,-1,1
867,nsIDOMSVGViewSpec,{ede34b03-57b6-45bf-a259-3550b5697286},0,-1,1
868,nsINativeTreeView,{38e0b44d-fa08-458c-83fb-3e10b12aeb45},0,-1,0
869,nsIPluginTagInfo,{5f1ec1d0-019b-11d2-815b-006008119d7a},0,-1,0
870,nsIDOMComment,{a6cf9073-15b3-11d2-932e-00805f8add32},0,-1,1
871,nsIDOMSVGFEOffsetElement,{c080f191-b22c-4fc0-85d5-a79dc3fa7ec8},0,-1,1
872,nsIHelperAppLauncherDialog,{f3704fdc-8ae6-4eba-a3c3-f02958ac0649},0,-1,1
873,xpcIJSModuleLoader,{89da3673-e699-4f26-9ed7-11a528011434},0,-1,1
874,nsICookieService,{2aaa897a-293c-4d2b-a657-8c9b7136996d},0,-1,1
875,nsIDOMSVGPolygonElement,{9de04775-77c5-48b5-9f4a-8996a936bfb2},0,-1,1
876,nsISecretDecoderRingConfig,{01d8c0f0-0ccc-11d4-9fdd-000064657374},0,-1,1
877,nsIDOMSVGCircleElement,{0f89f2a4-b168-4602-90f5-1874418c0a6a},0,-1,1
878,nsIJSContextStackIterator,{c7e6b7aa-fc12-4ca7-b140-98c38b698961},0,-1,0
879,nsIProperty,{6dcf9030-a49f-11d5-910d-0010a4e73d9a},0,-1,1
880,nsIDOMStyleSheetList,{a6cf9081-15b3-11d2-932e-00805f8add32},0,-1,1
881,nsIDNSRecord,{31c9c52e-1100-457d-abac-d2729e43f506},0,-1,1
882,nsIDOMSVGPathSegCurvetoCubicSmoothRel,{dd5b4b00-edaa-493a-b477-bbc2576b4a98},0,-1,1
883,nsIDOMCSSCharsetRule,{19fe78cc-65ff-4b1d-a5d7-9ea89692cec6},0,-1,1
884,nsIPrefetchService,{cba513eb-c457-4b93-832c-1a979e66edd1},0,-1,1
885,nsIDOMNameList,{faaf1b80-1ddd-11d9-8c46-000a95dc234c},0,-1,1
886,nsIFeedProcessor,{8a0b2908-21b0-45d7-b14d-30df0f92afc7},0,-1,1
887,nsIObjectOutputStream,{92c898ac-5fde-4b99-87b3-5d486422094b},0,-1,1
888,nsIEventHandler,{a447ddf0-1a99-11d2-815f-006008119d7a},0,-1,0
889,nsIDOMHTMLLabelElement,{a6cf9096-15b3-11d2-932e-00805f8add32},0,-1,1
890,nsIResumableChannel,{4ad136fa-83af-4a22-a76e-503642c0f4a8},0,-1,1
891,nsIScriptLoaderObserver,{7b787204-76fb-4764-96f1-fb7a666db4f4},0,-1,1
892,nsIHttpChannelInternal,{602e8cf0-c387-4598-9e6c-aa4b1551ed1c},0,-1,1
893,nsICollationFactory,{04971e14-d6b3-4ada-8cbb-c3a13842b349},0,-1,1
894,nsIScriptableRegion,{82d8f400-5bde-11d3-b033-b27a62766bbc},0,-1,1
895,nsITXTToHTMLConv,{933355f6-1dd2-11b2-a9b0-d335b9e35983},0,-1,1
896,nsIPlugin,{df773070-0199-11d2-815b-006008119d7a},0,-1,0
897,nsIRDFContainerUtils,{d4214e91-fb94-11d2-bdd8-00104bde6048},0,-1,1
898,nsIRequestObserverProxy,{7df8845f-938a-4437-9ea4-b11b850048f1},0,-1,1
899,nsISAXXMLReader,{5556997e-d816-4218-8b54-803d4261206e},0,-1,1
900,nsIDOMLSResourceResolver,{9e61c7c8-8698-4477-9971-0923513919bd},0,-1,1
901,nsIDOMCharacterData,{a6cf9072-15b3-11d2-932e-00805f8add32},0,-1,1
902,nsIDOM3Document,{2e0e9ea1-72ab-4d9e-bdeb-ca64e1abeba4},0,-1,1
903,nsIDOMPageTransitionEvent,{b712418b-376f-4f75-b156-5d9ad99fe51f},0,-1,1
904,nsIArray,{114744d9-c369-456e-b55a-52fe52880d2d},0,-1,1
905,nsIDOMUserDataHandler,{91afebdd-a201-4db0-b728-9d59580f0cfd},0,-1,1
906,nsIOfflineCacheUpdate,{7dc06ede-1098-4384-b95e-65525ab254c9},0,-1,1
907,nsIJRILiveConnectPluginInstancePeer,{25b63f40-f773-11d1-815b-006008119d7a},0,-1,0
908,nsIXPCWrappedJSObjectGetter,{254bb2e0-6439-11d4-8fe0-0010a4e73d9a},0,-1,1
909,nsIDOMLoadStatusEvent,{f14431b1-efb6-436c-a272-312f087b1459},0,-1,1
910,nsIDOMMimeTypeArray,{f6134683-f28b-11d2-8360-c90899049c3c},0,-1,1
911,nsISidebar,{67cf6231-c303-4f7e-b9b1-a0e87772ecfd},0,-1,1
912,nsIDOMSVGPathSegLinetoRel,{7933a81a-72c5-4489-ba64-5635f4c23063},0,-1,1
913,nsPIPluginHost,{75d8fcd7-06d1-4767-9022-7f8dacf48a68},0,-1,0
914,nsIHashable,{17e595fa-b57a-4933-bd0f-b1812e8ab188},0,-1,1
915,nsIDOMHTMLDListElement,{a6cf909b-15b3-11d2-932e-00805f8add32},0,-1,1
916,fuelIBookmark,{808585b6-7568-4b26-8c62-545221bf2b8c},0,-1,1
917,nsIDOMSVGMarkerElement,{6a3b7b40-e65a-4e9c-9ee7-ca03ed0a18c7},0,-1,1
918,nsIDOMDOMConstructor,{0ccbcf19-d1b4-489e-984c-cd8c43672bb9},0,-1,1
919,nsIDOMUIEvent,{a6cf90c3-15b3-11d2-932e-00805f8add32},0,-1,1
920,nsIRDFResource,{fb9686a7-719a-49dc-9107-10dea5739341},0,-1,1
921,nsIDOMFileException,{b52356e1-45c5-4d61-b61a-fb9bd91690e1},0,-1,1
922,nsIXULTemplateResult,{ebea0230-36fa-41b7-8e31-760806057965},0,-1,1
923,nsIDOMSVGLength,{2596325c-aed0-487e-96a1-0a6d589b9c6b},0,-1,1
924,nsIDOMSVGPreserveAspectRatio,{7ae42f27-4799-4e7c-86c6-e1dae6ad5157},0,-1,1
925,nsIEditorDocShell,{3bdb8f01-f141-11d4-a73c-fba4aba8a3fc},0,-1,1
926,nsIConsoleListener,{eaaf61d6-1dd1-11b2-bc6e-8fc96480f20d},0,-1,1
927,nsIProgrammingLanguage,{ea604e90-40ba-11d5-90bb-0010a4e73d9a},0,-1,1
928,nsIDOMNSHTMLImageElement,{a6cf90c7-15b3-11d2-932e-00805f8add32},0,-1,1
929,nsIUnicharStreamLoader,{9037f476-7c08-4729-b690-3e425269802b},0,-1,1
930,nsIFeedProgressListener,{ebfd5de5-713c-40c0-ad7c-f095117fa580},0,-1,1
931,nsIDOMHTMLAreaElement,{a6cf90b0-15b3-11d2-932e-00805f8add32},0,-1,1
932,nsIKeyObject,{4b31f4ed-9424-4710-b946-79b7e33cf3a8},0,-1,1
933,nsIMIMEService,{5b3675a1-02db-4f8f-a560-b34736635f47},0,-1,1
934,nsIBidiKeyboard,{0d8f8f10-c92d-4a6a-b2bb-e1921f3f4dda},0,-1,1
935,nsPISocketTransportService,{6f704e69-a5fb-11d9-8ce8-0011246ecd24},0,-1,1
936,nsIDOMSVGStylable,{ea8a6cb1-9176-45db-989d-d0e89f563d7e},0,-1,1
937,nsIURLFormatter,{4ab31d30-372d-11db-a98b-0800200c9a66},0,-1,1
938,imgIContainer,{1a6290e6-8285-4e10-963d-d001f8d327b8},0,-1,1
939,nsIDOMSVGPolylineElement,{7b6e15cf-9793-41ee-adcc-cc1c206c80e6},0,-1,1
940,nsIFeedResult,{7a180b78-0f46-4569-8c22-f3d720ea1c57},0,-1,1
941,nsIDOMSVGSVGElement,{83b04425-9509-49f5-af75-1ae1f8f3e871},0,-1,1
942,nsICipherInfoService,{766d47cb-6d8c-4e71-b6b7-336917629a69},0,-1,1
943,nsISocketTransport,{66418cc8-5f5d-4f52-a7f9-db8fb3b2cfe6},0,-1,1
944,nsIOutputIterator,{7330650e-1dd2-11b2-a0c2-9ff86ee97bed},0,-1,1
945,nsIDOMSVGTextContentElement,{87ad94bc-07c9-412b-b2d8-de245a2e84a5},0,-1,1
946,nsIDOM3Node,{29fb2a18-1dd2-11b2-8dd9-a6fd5d5ad12f},0,-1,1
947,nsIDirectoryServiceProvider2,{2f977d4b-5485-11d4-87e2-0010a4e75ef2},0,-1,1
948,nsIWebPageDescriptor,{6f30b676-3710-4c2c-80b1-0395fb26516e},0,-1,1
949,nsINetUtil,{57322c6f-f4ec-4e46-8253-b74be220de16},0,-1,1
950,nsIDOMHTMLParamElement,{a6cf90ad-15b3-11d2-932e-00805f8add32},0,-1,1
951,jsdIValue,{b7964304-1dd1-11b2-ba20-cf4205772e9d},0,-1,1
952,nsIDOMSVGFESpotLightElement,{5515dd05-3d9d-4d6c-8460-a04aaf5afe15},0,-1,1
953,jsdIObject,{d500e8b8-1dd1-11b2-89a1-cdf55d91cbbd},0,-1,1
954,jsdIScript,{a38f65ca-1dd1-11b2-95d5-ff2947e9c920},0,-1,1
955,nsIDOMNSEditableElement,{b33eb56c-3120-418c-892b-774b00c7dde8},0,-1,1
956,nsIClassInfo,{986c11d0-f340-11d4-9075-0010a4e73d9a},0,-1,1
957,nsIRDFService,{bfd05261-834c-11d2-8eac-00805f29f370},0,-1,1
958,nsIPrefLocalizedString,{ae419e24-1dd1-11b2-b39a-d3e5e7073802},0,-1,1
959,nsISupportsPriority,{aa578b44-abd5-4c19-8b14-36d4de6fdc36},0,-1,1
960,nsIKeyObjectFactory,{264eb54d-e20d-49a0-890c-1a5986ea81c4},0,-1,1
961,nsIInputStream,{fa9c7f6c-61b3-11d4-9877-00c04fa0cf4a},0,-1,1
962,nsISecurityCheckedComponent,{0dad9e8c-a12d-4dcb-9a6f-7d09839356e1},0,-1,1
963,nsIDOMSVGAnimatedPoints,{ebf334b3-86ef-4bf3-8a92-d775c72defa4},0,-1,1
964,nsIDOMHTMLFormElement,{a6cf908f-15b3-11d2-932e-00805f8add32},0,-1,1
965,mozIPersonalDictionary,{7ef52eaf-b7e1-462b-87e2-5d1dbaca9048},0,-1,1
966,nsIScriptableInterfacesByID,{c99cffac-5aed-4267-ad2f-f4a4c9d4a081},0,-1,1
967,nsIDocShell,{7d1cf6b9-daa3-476d-8f9f-9eb2a971a95c},0,-1,1
968,nsIDragService,{034c44a4-604b-44a2-9205-676d5135f359},0,-1,1
969,nsISAXXMLFilter,{77a22cf0-6cdf-11da-be43-001422106990},0,-1,1
970,nsIUpdatePatch,{56863a67-bd69-42de-9f40-583e625b457d},0,-1,1
971,nsITreeColumns,{f8a8d6b4-6788-438d-9009-7142798767ab},0,-1,1
972,nsIDOMHTMLHtmlElement,{a6cf9086-15b3-11d2-932e-00805f8add32},0,-1,1
973,nsIHttpProtocolHandler,{122c91c0-2485-40ba-89c9-b895934921bc},0,-1,1
974,nsIAuthPromptWrapper,{6228d644-17fe-11d4-8cee-0060b0fc14a3},0,-1,1
975,nsICommandHandler,{34a4fcf0-66fc-11d4-9528-0020183bf181},0,-1,1
976,nsIRDFXMLSerializer,{8ae1fbf8-1dd2-11b2-bd21-d728069cca92},0,-1,1
977,nsICookie,{e9fcb9a4-d376-458f-b720-e65e7df593bc},0,-1,1
978,nsICMSEncoder,{a15789aa-8903-462b-81e9-4aa2cff4d5cb},0,-1,0
979,nsIBinaryInputStream,{7b456cb0-8772-11d3-90cf-0040056a906e},0,-1,1
980,nsIAddonRepository,{c4d2ac29-6edc-43cd-8dc8-e4cf213aa1be},0,-1,1
981,extIEventListener,{2dfe3a50-ab2f-11db-abbd-0800200c9a66},0,-1,1
982,nsIRDFContainer,{d4214e90-fb94-11d2-bdd8-00104bde6048},0,-1,1
983,nsIXPIInstallInfo,{5a4a775c-e452-4cf2-8ff8-d327ae24aec6},0,-1,1
984,nsINavBookmarksService,{3b6ff5c5-0ab4-4aab-b1be-d569763a6ce0},0,-1,1
985,nsIThreadManager,{056216f5-8803-46b4-9199-d95bc1f0446f},0,-1,1
986,nsIDOMLinkStyle,{24d89a65-f598-481e-a297-23cc02599bbd},0,-1,1
987,nsIDOMSVGPoint,{45f18f8f-1315-4447-a7d5-8aeca77bdcaf},0,-1,1
988,nsIXMLHttpRequest,{acda85ab-d06c-4176-b834-6d129ca97ca3},0,-1,1
989,nsISupportsCString,{d65ff270-4a1c-11d3-9890-006008962422},0,-1,1
990,nsIDebug,{3bf0c3d7-3bd9-4cf2-a971-33572c503e1e},0,-1,1
991,IDispatch,{00020400-0000-0000-c000-000000000046},0,-1,1
992,nsIXPInstallManager,{83fdd52f-2d34-4e22-981d-cf3c4ae76faa},0,-1,1
993,nsIFeedResultListener,{4d2ebe88-36eb-4e20-bcd1-997b3c1f24ce},0,-1,1
994,nsIDOMTreeWalker,{400af3ca-1dd2-11b2-a50a-887ecca2e63a},0,-1,1
995,inICSSValueSearch,{e0d39e48-1dd1-11b2-81bd-9a0c117f0736},0,-1,1
996,nsIClipboardDragDropHookList,{876a2015-6b66-11d7-8f18-0003938a9d96},0,-1,1
997,nsIDOMSVGAnimatedString,{4afb42f4-9969-483d-9b90-59ddba047492},0,-1,1
998,nsITreeView,{637276b5-58c0-4eff-89ea-c7f3c5bf0b54},0,-1,1
999,nsIDOMDocumentXBL,{1a38762b-4da5-4f61-80fb-9317e198cb92},0,-1,1
1000,nsIObserverService,{d07f5192-e3d1-11d2-8acd-00105a1b8860},0,-1,1
1001,nsIAutoCompleteInput,{f5eddd39-f8e0-43b7-bc3d-03623f595e52},0,-1,1
1002,nsIDOMHTMLFrameSetElement,{a6cf90b8-15b3-11d2-932e-00805f8add32},0,-1,1
1003,nsICertOverrideService,{31738d2a-77d3-4359-84c9-4be2f38fb8c5},0,-1,1
1004,nsIPipe,{f4211abc-61b3-11d4-9877-00c04fa0cf4a},0,-1,1
1005,nsINavHistoryBatchCallback,{5143f2bb-be0a-4faf-9acb-b0ed3f82952c},0,-1,1
1006,nsIFactory,{00000001-0000-0000-c000-000000000046},0,-1,1
1007,nsIProtectedAuthThread,{4bb27cb7-8984-4cee-8ce7-9b014c3d091b},0,-1,1
1008,nsISupportsPRTime,{e2563630-4a1c-11d3-9890-006008962422},0,-1,1
1009,nsIDOMSVGStopElement,{93169940-7663-4eab-af23-94a8a08c2654},0,-1,1
1010,nsIJRILiveConnectPlugin,{c94058e0-f772-11d1-815b-006008119d7a},0,-1,0
1011,inISearchProcess,{d5fa765b-2448-4686-b7c1-5ff13acb0fc9},0,-1,1
1012,nsICacheService,{98dd0187-aad4-4cab-82c5-1adddef3629d},0,-1,1
1013,nsISecurityPref,{94afd973-8045-4c6c-89e6-75bdced4209e},0,-1,0
1014,nsIFeedTextConstruct,{fc97a2a9-d649-4494-931e-db81a156c873},0,-1,1
1015,nsIIncrementalDownload,{6687823f-56c4-461d-93a1-7f6cb7dfbfba},0,-1,1
1016,nsIDocShellHistory,{89caa9f0-8b1c-47fb-b0d3-f0aef0bff749},0,-1,1
1017,nsICacheSession,{ae9e84b5-3e2d-457e-8fcd-5bbd2a8b832e},0,-1,1
1018,txIFunctionEvaluationContext,{0ecbb00c-6a78-11d9-9791-000a95dc234c},0,-1,1
1019,nsIDOMHTMLEmbedElement,{123f90ab-15b3-11d2-456e-00805f8add32},0,-1,1
1020,nsIDOMHTMLAnchorElement,{a6cf90aa-15b3-11d2-932e-00805f8add32},0,-1,1
1021,nsICharsetConverterManager,{f5323a76-c8f7-4c65-8d0c-1250e969c7d5},0,-1,1
1022,nsIProfileMigrator,{24ce8b9d-b7ff-4279-aef4-26e158f03e34},0,-1,1
1023,nsIRDFPropagatableDataSource,{5a9b4770-9fcb-4307-a12e-4b6708e78b97},0,-1,1
1024,mozISpellI18NUtil,{b075d5dc-1df1-441a-bebf-680d8caaa19c},0,-1,1
1025,nsIGlobalHistory3,{24306852-c60e-49c3-a455-90f6747118ba},0,-1,1
1026,nsIWyciwygChannel,{89b0674a-9e2f-4124-9b59-481444be841d},0,-1,1
1027,nsIDOMChromeWindow,{847fac33-48a8-4360-bfbc-6bb96245404d},0,-1,1
1028,nsISupports,{00000000-0000-0000-c000-000000000046},0,-1,1
1029,nsIDOMSVGFEMergeNodeElement,{540c3447-4b07-4bd3-84df-30f66b68df14},0,-1,1
1030,nsILoginManagerIEMigrationHelper,{8a59ea3d-b8d0-48af-a3e2-63e27a02cde7},0,-1,1
1031,nsIMicrosummarySet,{7111e88d-fecd-4b17-b7a9-1fa74e23153f},0,-1,1
1032,nsIFeedEntry,{31bfd5b4-8ff5-4bfd-a8cb-b3dfbd4f0a5b},0,-1,1
1033,nsIDOMSVGAnimatedAngle,{c6ab8b9e-32db-464a-ae33-8691d44bc60a},0,-1,1
1034,nsIXPCComponents_Constructor,{88655640-e028-11d3-8f5d-0010a4e73d9a},0,-1,1
1035,nsIPromptFactory,{2532b748-75db-4732-9173-78d3bf34f694},0,-1,1
1036,nsIUTF8ConverterService,{249f52a3-2599-4b00-ba40-0481364831a2},0,-1,1
1037,nsIDOMLSSerializer,{96ea4792-d362-4c28-a8c2-0337790d648a},0,-1,1
1038,nsIUpdateChecker,{877ace25-8bc5-452a-8586-9c1cf2871994},0,-1,1
1039,nsIDOM3Attr,{a2216ddc-1bcd-4ec2-a292-371e09a6c377},0,-1,1
1040,nsIDOMHTMLQuoteElement,{a6cf90a3-15b3-11d2-932e-00805f8add32},0,-1,1
1041,nsIPlacesTransactionsService,{7179d28c-bc41-4110-8225-b3ba7e1cb293},0,-1,1
1042,nsIX509Cert2,{5b62c61c-f898-4dab-8ace-51109bb459b4},0,-1,1
1043,nsIFeedResultService,{950a829e-c20e-4dc3-b447-f8b753ae54da},0,-1,1
1044,nsIMarkupDocumentViewer,{40b2282a-a882-4483-a634-dec468d88377},0,-1,1
1045,txINodeSet,{15d424c0-6b47-11d9-9791-000a95dc234c},0,-1,1
1046,nsIFormSubmitObserver,{0787d64a-44bf-4273-8438-61ff13ebec0c},0,-1,1
1047,nsIDOMSVGPathSegMovetoAbs,{30cf7749-bf1f-4f9c-9558-8ee24da3a22c},0,-1,1
1048,nsIScriptableInputStream,{a2a32f90-9b90-11d3-a189-0050041caf44},0,-1,1
1049,nsIDOMStorageWindow,{55e9c181-2476-47cf-97f8-efdaaf7b6f7a},0,-1,1
1050,nsIControllerCommandTable,{d1a47834-6ad4-11d7-bfad-000393636592},0,-1,1
1051,nsIAutoCompleteResult,{d2fcba9a-3f5c-40fc-a9fc-4adc87dc61ef},0,-1,1
1052,nsIScriptableUnicodeConverter,{1ea19c6c-c59f-4fd7-9fc7-151e946baca0},0,-1,1
1053,nsIAccessibleSelectable,{34d268d6-1dd2-11b2-9d63-83a5e0ada290},0,-1,1
1054,nsIUserCertPicker,{06d018e0-d41b-4629-a4fc-daaa6029888e},0,-1,1
1055,nsIDOMHTMLHeadingElement,{a6cf90a2-15b3-11d2-932e-00805f8add32},0,-1,1
1056,nsISSLStatusProvider,{8de811f0-1dd2-11b2-8bf1-e9aa324984b2},0,-1,1
1057,nsIAccessibleDocument,{b7ae45bd-21e9-4ed5-a67e-86448b25d56b},0,-1,1
1058,nsIDOMCanvasRenderingContext2D,{87d2b1c4-b64e-41f6-98f7-7ac4244ce9bf},0,-1,1
1059,nsIStreamListener,{1a637020-1482-11d3-9333-00104ba0fd40},0,-1,1
1060,nsIOutputStreamCallback,{40dbcdff-9053-42c5-a57c-3ec910d0f148},0,-1,1
1061,jsdIScriptEnumerator,{4c2f706e-1dd2-11b2-9ebc-85a06e948830},0,-1,1
1062,nsIWebProgress,{570f39d0-efd0-11d3-b093-00a024ffc08c},0,-1,1
1063,nsIBoxObject,{ce572460-b0f2-4650-a9e7-c53a99d3b6ad},0,-1,1
1064,nsIXULChromeRegistry,{2860e205-490e-4b06-90b6-87160d35a5a7},0,-1,1
1065,nsIScreenManager,{e224bd44-252b-4b66-b869-99738250904a},0,-1,1
1066,nsIUpdateTimerManager,{0765c92c-6145-4253-9db4-594d8023087e},0,-1,1
1067,nsIJSCID,{26b2a374-6eaf-46d4-acaf-1c6be152d36b},0,-1,1
1068,nsIDOMNSElement,{cea6f919-7fe6-4bdd-9db6-158d9283f8d3},0,-1,1
1069,nsIHttpChannel,{9277fe09-f0cc-4cd9-bbce-581dd94b0260},0,-1,1
1070,txIEXSLTRegExFunctions,{c180e993-aced-4839-95a0-ecd5ff138be9},0,-1,1
1071,mozISpellI18NManager,{aeb8936f-219c-4d3c-8385-d9382daa551a},0,-1,1
1072,nsIPluginInstance,{ebe00f40-0199-11d2-815b-006008119d7a},0,-1,0
1073,nsIXPCException,{b2a34010-3983-11d3-9888-006008962422},0,-1,1
1074,nsIDownload,{c891111e-92a6-47b8-bc46-874ebb61ac9d},0,-1,1
1075,nsIObjectLoadingContent,{90ab443e-3e99-405e-88c9-9c42adaa3217},0,-1,1
1076,nsIDOM3DocumentEvent,{090ecc19-b7cb-4f47-ae47-ed68d4926249},0,-1,1
1077,nsIProgressEventSink,{d974c99e-4148-4df9-8d98-de834a2f6462},0,-1,1
1078,nsIAuthPromptProvider,{bd9dc0fa-68ce-47d0-8859-6418c2ae8576},0,-1,1
1079,nsISelection,{b2c7ed59-8634-4352-9e37-5484c8b6e4e1},0,-1,1
1080,nsIAccessibleRole,{8c0f68f8-164a-4078-a9ee-36a7d180f0e4},0,-1,1
1081,nsIRDFInt,{e13a24e3-c77a-11d2-80be-006097b76b8e},0,-1,1
1082,nsIXPointerSchemeProcessor,{093d3559-b56b-44d0-8764-c25815715080},0,-1,0
1083,nsIDOMSVGLengthList,{a8760fcd-3de5-446a-a009-5cf877e7a4df},0,-1,1
1084,nsIRDFDelegateFactory,{a1b89470-a124-11d3-be59-0020a6361667},0,-1,1
1085,jsdIContext,{a2dd25a4-1dd1-11b2-bda6-ed525acd4c35},0,-1,1
1086,nsIX509CertDB2,{e0df4784-6560-45bf-b1b7-86076a0e8381},0,-1,1
1087,inIFlasher,{7b4a099f-6f6e-4565-977b-fb622adbff49},0,-1,1
1088,nsICommandParams,{83f892cf-7ed3-490e-967a-62640f3158e1},0,-1,1
1089,nsICharsetResolver,{d143a084-b626-4614-845f-41f3ca43a674},0,-1,1
1090,nsIConverterOutputStream,{4b71113a-cb0d-479f-8ed5-01daeba2e8d4},0,-1,1
1091,nsICookieManager2,{5047cab4-9cb2-4927-a4ab-77422bc3bc67},0,-1,1
1092,nsIUrlClassifierDBServiceWorker,{2af84c09-269e-4fc2-b28f-af56717db118},0,-1,1
1093,nsIAccessibilityService,{27386cf1-f27e-4d2d-9bf4-c4621d50d299},0,-1,0
1094,nsIDOMSVGAElement,{35d3365a-3e6f-4cdf-983d-fdaed1564478},0,-1,1
1095,nsIDOMSVGTransform,{29cc2e14-6d18-4710-bda9-a88d9d3bc8dc},0,-1,1
1096,nsICommandLineRunner,{c1f4cfbf-a41f-4628-aa6c-9fb914478af8},0,-1,0
1097,nsIPromptService2,{cf86d196-dbee-4482-9dfa-3477aa128319},0,-1,1
1098,nsIPluginStreamListener,{df055770-5448-11d2-8164-006008119d7a},0,-1,0
1099,mozIStorageAggregateFunction,{763217b7-3123-11da-918d-000347412e16},0,-1,1
1100,nsPIExternalAppLauncher,{d0b5d7d3-9565-403d-9fb5-e5089c4567c6},0,-1,1
1101,nsIDOMProcessingInstruction,{a6cf907f-15b3-11d2-932e-00805f8add32},0,-1,1
1102,nsITreeBoxObject,{a264f607-9d90-469e-b770-1ae7284fde05},0,-1,1
1103,nsIDOMNSRange,{59188642-23b4-41d6-bde1-302c3906d1f0},0,-1,1
1104,nsINetworkLinkService,{61618a52-ea91-4277-a4ab-ebe10d7b9a64},0,-1,1
1105,nsIDOMXPathEvaluator,{75506f8a-b504-11d5-a7f2-ca108ab8b6fc},0,-1,1
1106,nsIXPointerEvaluator,{addd0fe5-8555-45b7-b763-97d5898ce268},0,-1,0
1107,nsISecretDecoderRing,{0ec80360-075c-11d4-9fd4-00c04f1b83d8},0,-1,1
1108,nsIEntropyCollector,{6f883680-ab9d-11d4-9978-00b0d02354a0},0,-1,0
1109,nsIPrintOptions,{92597c2b-109b-40bb-8f93-9b9acfa31de8},0,-1,1
1110,nsIHttpActivityObserver,{412880c8-6c36-48d8-bf8f-84f91f892503},0,-1,1
1111,nsIBrowserBoxObject,{db436f2f-c656-4754-b0fa-99bc353bd63f},0,-1,1
1112,nsIAddonInstallListener,{2333b04c-f371-4dea-a2f1-d8fdb0c82866},0,-1,1
1113,nsIDOMElementCSSInlineStyle,{99715845-95fc-4a56-aa53-214b65c26e22},0,-1,1
1114,nsIDOMSVGNumber,{98575762-a936-4ecf-a226-b74c3a2981b4},0,-1,1
1115,nsICommandLine,{bc3173bd-aa46-46a0-9d25-d9867a9659b6},0,-1,1
1116,nsPIPluginInstancePeer,{4a708562-8a37-400b-8c08-20037d1adad3},0,-1,0
1117,nsIRDFXMLParser,{1831dd2e-1dd2-11b2-bdb3-86b7b50b70b5},0,-1,1
1118,nsICryptoHash,{1e5b7c43-4688-45ce-92e1-77ed931e3bbe},0,-1,1
1119,nsIAnnotationService,{ba249b58-346f-42a9-a393-203ae34ec6c4},0,-1,1
1120,nsIDOMHTMLStyleElement,{a6cf908d-15b3-11d2-932e-00805f8add32},0,-1,1
1121,nsIDOMNSHTMLFormElement,{a6cf90c6-15b3-11d2-932e-00805f8add32},0,-1,1
1122,nsIDOMSVGException,{64e6f0e1-af99-4bb9-ab25-7e56012f0021},0,-1,1
1123,nsICollection,{83b6019c-cbc4-11d2-8cca-0060b0fc14a3},0,-1,1
1124,nsIModuleLoader,{9b328e24-4d85-4a9c-9cb7-f25e66f430c3},0,-1,1
1125,nsIAuthPromptCallback,{bdc387d7-2d29-4cac-92f1-dd75d786631d},0,-1,1
1126,nsIJSXMLHttpRequest,{261676b4-d508-43bf-b099-74635a0ee2e9},0,-1,1
1127,nsIDOMSVGFEFuncGElement,{28555e78-c6c2-4a98-af53-bfc2c6944295},0,-1,1
1128,nsIWindowWatcher,{002286a8-494b-43b3-8ddd-49e3fc50622b},0,-1,1
1129,nsIDOMSVGFETurbulenceElement,{77bc4d70-0d49-4c81-b7a7-7432f0fe3e04},0,-1,1
1130,nsIDOMXULControlElement,{007b8358-1dd2-11b2-8924-d209efc3f124},0,-1,1
1131,nsICacheDeviceInfo,{31d1c294-1dd2-11b2-be3a-c79230dca297},0,-1,1
1132,imgITools,{c395d8f1-c616-4a1b-adfd-747b4b1b2cbe},0,-1,1
1133,nsIContentViewerFile,{6317f32c-9bc7-11d3-bccc-0060b0fc76bd},0,-1,1
1134,nsIDOMSVGPatternElement,{bc435244-b748-4e14-9e4c-219d5d3cb218},0,-1,1
1135,nsIAccessibleCoordinateType,{c9fbdf10-619e-436f-bf4b-8566686f1577},0,-1,1
1136,nsIConverterInputStream,{fc66ffb6-5404-4908-a4a3-27f92fa0579d},0,-1,1
1137,nsIScreen,{f728830e-1dd1-11b2-9598-fb9f414f2465},0,-1,1
1138,nsIDOMCSSPrimitiveValue,{e249031f-8df9-4e7a-b644-18946dce0019},0,-1,1
1139,nsIDOMXULTextBoxElement,{71135b6c-294e-4634-a8e4-a72398f1e72a},0,-1,1
1140,nsIDirIndexParser,{38e3066c-1dd2-11b2-9b59-8be515c1ee3f},0,-1,1
1141,nsIDOMClientRectList,{917da19d-62f5-441d-b47e-9e35f05639c9},0,-1,1
1142,nsIDOMHTMLTableCaptionElement,{a6cf90b3-15b3-11d2-932e-00805f8add32},0,-1,1
1143,nsIAnnotationObserver,{63fe98e0-6889-4c2c-ac9f-703e4bc25027},0,-1,1
1144,nsIPopupWindowManager,{3210a6aa-b464-4f57-9335-b22815567cf1},0,-1,1
1145,nsISupportsInterfacePointer,{995ea724-1dd1-11b2-9211-c21bdd3e7ed0},0,-1,1
1146,nsIUpdateCheckListener,{8cbceb6e-8e27-46f2-8808-444c6499f836},0,-1,1
1147,nsIStringBundle,{d85a17c2-aa7c-11d2-9b8c-00805f8a16d9},0,-1,1
1148,nsIDOMFileList,{3bfef9fa-8ad3-4e49-bd62-d6cd75b29298},0,-1,1
1149,nsIWebNavigationInfo,{62a93afb-93a1-465c-84c8-0432264229de},0,-1,1
1150,nsIWebContentConverterService,{de7cc06e-e778-45cb-b7db-7a114e1e75b1},0,-1,1
1151,nsIDOMNSHTMLFormControlList,{a6cf911a-15b3-11d2-932e-00805f8add32},0,-1,1
1152,nsIDOMXULTreeElement,{1f8111b2-d44d-4d11-845a-a70ae06b7d04},0,-1,1
1153,nsINavHistoryResultTreeViewer,{fa77e4e9-9fc8-45d2-9507-0fe4f0602505},0,-1,1
1154,nsIXPCComponents_ClassesByID,{336a9590-4d19-11d3-9893-006008962422},0,-1,1
1155,nsIDOMNSHistory,{5fb96f46-1dd2-11b2-a5dc-998ca8636ea9},0,-1,1
1156,nsIPrintingPromptService,{75d1553d-63bf-4b5d-a8f7-e4e4cac21ba4},0,-1,1
1157,nsIDOMNSXPathExpression,{ce600ca8-e98a-4419-ad61-2f6d0cb0ecc8},0,-1,1
1158,nsINavHistoryResultNode,{47cf89e3-4777-46bf-9677-21793870ce62},0,-1,1
1159,nsIWritablePropertyBag2,{9cfd1587-360e-4957-a58f-4c2b1c5e7ed9},0,-1,1
1160,nsITransactionList,{97f863f3-f886-11d4-9d39-0060b0f8baff},0,-1,1
1161,nsIDOMSVGPathSegCurvetoCubicRel,{0e661233-0c4f-4e0d-94d3-fbc460ad1f88},0,-1,1
1162,gfxIFormats,{96d086e6-1dd1-11b2-b6b2-b77b59390247},0,-1,1
1163,nsISupportsPRBool,{ddc3b490-4a1c-11d3-9890-006008962422},0,-1,1
1164,nsIDOMNodeFilter,{e4723748-1dd1-11b2-8ee6-866a532a6237},0,-1,1
1165,nsIDOMLSOutput,{757e9971-8890-478d-a53a-07f9f6f6e0d3},0,-1,1
1166,nsISelectionDisplay,{0ddf9e1c-1dd2-11b2-a183-908a08aa75ae},0,-1,1
1167,nsIObserver,{db242e01-e4d9-11d2-9dde-000064657374},0,-1,1
1168,nsIJSID,{baedc96a-9cee-4b6b-9160-90d257b3c8ef},0,-1,1
1169,nsIGnomeVFSMimeApp,{66009894-9877-405b-9321-bf30420e34e6},0,-1,1
1170,nsIPrintProgressParams,{ca89b55b-6faf-4051-9645-1c03ef5108f8},0,-1,1
1171,nsIDOMSVGUnitTypes,{154b572f-3d0b-49c0-8b5d-8864d05bd3d1},0,-1,1
1172,nsIDOMCSSRuleList,{a6cf90c0-15b3-11d2-932e-00805f8add32},0,-1,1
1173,jsdINestCallback,{88bea60f-9b5d-4b39-b08b-1c3a278782c6},0,-1,1
1174,nsIHTMLObjectResizeListener,{27b00295-349c-429f-ad0c-87b859e77130},0,-1,1
1175,nsIKeygenThread,{8712a243-5539-447c-9f47-8653f40c3a09},0,-1,1
1176,nsIPersistentProperties,{1a180f60-93b2-11d2-9b8b-00805f8a16d9},0,-1,1
1177,nsIXPCComponents_utils_Sandbox,{4f8ae0dc-d266-4a32-875b-6a9de71a8ce9},0,-1,1
1178,nsIAccessibleRetrieval,{244e4c67-a1d3-44f2-9cab-cdaa31b68046},0,-1,1
1179,nsIScriptableUnescapeHTML,{3ab244a9-f09d-44da-9e3f-ee4d67367f2d},0,-1,1
1180,nsIDOMSVGFEDiffuseLightingElement,{2e9eb422-2398-4be9-a9b8-b1cc7aa9dd6f},0,-1,1
1181,nsIURIRefObject,{2226927e-1dd2-11b2-b57f-faab47288563},0,-1,1
1182,nsIDOMNSHTMLOptionElement,{e2dfc89c-7ae0-4651-8aee-7f5edc2aa626},0,-1,1
1183,imgIDecoderObserver,{876f14ee-f27c-41cd-b6fb-9efda3ebc7b5},0,-1,1
1184,nsIPrinterEnumerator,{5e738fff-404c-4c94-9189-e8f2cce93e94},0,-1,1
1185,nsIDOMEventTarget,{1c773b30-d1cf-11d2-bd95-00805f8ae3f4},0,-1,1
1186,nsIDOMSVGScriptElement,{bbe0d0ee-e9ed-4f84-a6e4-e58f66530caa},0,-1,1
1187,nsIFTPEventSink,{455d4234-0330-43d2-bbfb-99afbecbfeb0},0,-1,1
1188,nsIPermissionManager,{00708302-684c-42d6-a5a3-995d51b1d17c},0,-1,1
1189,nsIWindowProvider,{5119ac7f-81dd-4061-96a7-71f2cf5efee4},0,-1,0
1190,nsIJSRuntimeService,{e7d09265-4c23-4028-b1b0-c99e02aa78f8},0,-1,0
1191,nsIDOMEntity,{a6cf9079-15b3-11d2-932e-00805f8add32},0,-1,1
1192,nsIDOMHTMLBaseElement,{a6cf908b-15b3-11d2-932e-00805f8add32},0,-1,1
1193,nsIFileInputStream,{e3d56a20-c7ec-11d3-8cda-0060b0fc14a3},0,-1,1
1194,nsIDOMHTMLMenuElement,{a6cf909d-15b3-11d2-932e-00805f8add32},0,-1,1
1195,nsIDOMHTMLDivElement,{a6cf90a0-15b3-11d2-932e-00805f8add32},0,-1,1
1196,nsIUpdate,{9d6a388b-2e0c-4d0e-9a60-5c9739a7ada5},0,-1,1
1197,nsIPlacesImportExportService,{21c00314-fa63-11db-8314-0800200c9a66},0,-1,1
1198,nsIDOMDataContainerEvent,{3600d66c-b9ac-4c22-b39a-d64cce619921},0,-1,1
1199,nsIDOMXULLabeledControlElement,{a457ea70-1dd1-11b2-9089-8fd894122084},0,-1,1
1200,nsIZipWriter,{6d4ef074-206c-4649-9884-57bc355864d6},0,-1,1
1201,nsIDOMSVGLineElement,{4ea07ef3-ed66-4b41-8119-4afc6d0ed5af},0,-1,1
1202,nsISAXMutableAttributes,{8b1de83d-cebb-49fa-8245-c0fe319eb7b6},0,-1,1
1203,nsIStreamConverterService,{f2b1ab53-f0bd-4adb-9365-e59b1701a258},0,-1,1
1204,nsIDOMXULSelectControlItemElement,{6aaaa30d-54ab-434a-8ae8-6d29a566d870},0,-1,1
1205,nsIPrefBranchInternal,{d1d412d9-15d6-4a6a-9533-b949dc175ff5},0,-1,1
1206,nsIDOMSVGPathSegList,{94a6db98-3f34-4529-a35f-89ef49713795},0,-1,1
1207,nsISupportsPRUint16,{dfacb090-4a1c-11d3-9890-006008962422},0,-1,1
1208,nsIWritablePropertyBag,{96fc4671-eeb4-4823-9421-e50fb70ad353},0,-1,1
1209,nsIProperties,{78650582-4e93-4b60-8e85-26ebd3eb14ca},0,-1,1
1210,nsIDOMSVGPathSeg,{b9022da7-e26d-4df3-8c94-b45c4aedda7c},0,-1,1
1211,nsIDOMNavigator,{8e150a70-3e51-45df-bee3-77505fbe016c},0,-1,1
1212,nsPIEditorTransaction,{4f18ada2-0ddc-11d5-9d3a-0060b0f8baff},0,-1,1
1213,nsISearchSubmission,{58e4f602-a7c8-4cd1-9dca-716705e826ef},0,-1,1
1214,nsIDOMSVGFilterPrimitiveStandardAttributes,{ab68567a-b830-4c46-9f2f-a28513a9e980},0,-1,1
1215,nsIDOMOfflineResourceList,{8449bce2-0d8c-4c74-ab79-b41b8d81f1c4},0,-1,1
1216,nsIPrintSettings,{5af07661-6477-4235-8814-4a45215855b8},0,-1,1
1217,nsIFlavorDataProvider,{7e225e5f-711c-11d7-9fae-000393636592},0,-1,1
1218,nsIDOMSVGSymbolElement,{86092181-a5db-4a89-be03-07dcc14d426e},0,-1,1
1219,nsIUnicharStreamListener,{4a7e9b62-fef8-400d-9865-d6820f630b4c},0,-1,1
1220,nsIServerSocket,{a5b64be0-d563-46bb-ae95-132e46fcd42f},0,-1,1
1221,nsIDOMXULDocument,{9816241b-2a20-44ff-903b-575f40c0ecc5},0,-1,1
1222,nsIEditorSpellCheck,{90c93610-c116-44ab-9793-62dccb9f43ce},0,-1,1
1223,nsIDOMHTMLScriptElement,{a6cf90b1-15b3-11d2-932e-00805f8add32},0,-1,1
1224,nsIWebBrowserChromeFocus,{d2206418-1dd1-11b2-8e55-acddcd2bcfb8},0,-1,1
1225,nsIEntityConverter,{d14c7111-55e0-11d3-91d9-00105aa3f7dc},0,-1,1
1226,nsISimpleEnumerator,{d1899240-f9d2-11d2-bdd6-000064657374},0,-1,1
1227,fuelIAnnotations,{335c9292-91a1-4ca0-ad0b-07d5f63ed6cd},0,-1,1
1228,nsIEnvironment,{101d5941-d820-4e85-a266-9a3469940807},0,-1,1
1229,nsIDOMSVGElement,{e0be7cbb-81c1-4663-8f95-109d96a60b6b},0,-1,1
1230,nsIDocumentEncoder,{f85c5a20-258d-11db-a98b-0800200c9a66},0,-1,1
1231,nsIChannelEventSink,{6757d790-2916-498e-aaca-6b668a956875},0,-1,1
1232,nsIXPCComponents_Utils,{da2267f2-d4cc-448f-9d70-1c7fe134d2fe},0,-1,1
1233,nsINavHistoryContainerResultNode,{f9c8e1c1-e701-44ad-893c-8504c3956929},0,-1,1
1234,nsIPrintingPrompt,{44e314ca-75b1-4f3d-9553-9b3507912108},0,-1,1
1235,nsIDOMHTMLOptionElement,{a6cf9092-15b3-11d2-932e-00805f8add32},0,-1,1
1236,nsISupportsPRInt32,{e36c5250-4a1c-11d3-9890-006008962422},0,-1,1
1237,nsIDOMSVGPathSegArcAbs,{c9e222e5-31fd-4083-ae1f-fcf013681340},0,-1,1
1238,nsIFrameLoader,{d675c531-6bdc-417c-b176-635060105f07},0,-1,1
1239,nsIDOMSVGPathSegLinetoVerticalRel,{d3ef2128-8de3-4aac-a6b4-13c7563119a6},0,-1,1
1240,nsIDOMXULCommandDispatcher,{f3c50361-14fe-11d3-bf87-00105a1b0627},0,-1,1
1241,nsIDownloadManagerUI,{ca7663d5-69e3-4c4a-b754-f462bd36b05f},0,-1,1
1242,nsIX509CertDB,{da48b3c0-1284-11d5-ac67-000064657374},0,-1,1
1243,nsIDOMRangeException,{0f807301-39d2-11d6-a7f2-8f504ff870dc},0,-1,1
1244,nsIRDFCompositeDataSource,{96343820-307c-11d2-bc15-00805f912fe7},0,-1,1
1245,nsICryptoHMAC,{8feb4c7c-1641-4a7b-bc6d-1964e2099497},0,-1,1
1246,nsILineInputStream,{c97b466c-1e6e-4773-a4ab-2b2b3190a7a6},0,-1,1
1247,nsIWeakReference,{9188bc85-f92e-11d2-81ef-0060083a0bcf},0,-1,1
1248,nsIAccessibleHyperLink,{38c60bfa-6040-4bfe-93f2-acd6a909bb60},0,-1,1
1249,nsIForwardIterator,{8da01646-1dd2-11b2-98a7-c7009045be7e},0,-1,1
1250,nsIDOMHTMLAppletElement,{a6cf90ae-15b3-11d2-932e-00805f8add32},0,-1,1
1251,nsIBadCertListener2,{2c3d268c-ad82-49f3-99aa-e9ffddd7a0dc},0,-1,1
1252,nsIDNSService,{3ac9e611-e6b6-44b5-b312-c040e65b2929},0,-1,1
1253,nsIDOMSmartCardEvent,{52bdc7ca-a934-4a40-a2e2-ac83a70b4019},0,-1,1
1254,nsIDOMXULElement,{30a4a815-b42a-4f0b-9c10-1e7f727cd135},0,-1,1
1255,nsIFeedGenerator,{0fecd56b-bd92-481b-a486-b8d489cdd385},0,-1,1
1256,nsIDOMXPathResult,{75506f84-b504-11d5-a7f2-ca108ab8b6fc},0,-1,1
1257,nsIDOMSVGLocatable,{9cf4fc9c-90b2-4d66-88f5-35049b558aee},0,-1,1
1258,nsIWebBrowserFind,{2f977d44-5485-11d4-87e2-0010a4e75ef2},0,-1,1
1259,nsICryptoFIPSInfo,{99e81922-7318-4431-b3aa-78b3cb4119bb},0,-1,1
1260,nsIDOMSVGUseElement,{d49a3ac7-e779-46c8-ae92-214420aa1b71},0,-1,1
1261,nsICertVerificationResult,{2fd0a785-9f2d-4327-8871-8c3e0783891d},0,-1,1
1262,nsIDOMXULMultiSelectControlElement,{82c72eca-9886-473e-94cd-9de5694b3f88},0,-1,1
1263,nsIMicrosummaryService,{d58143a2-74fa-4b13-94ed-113af8936d80},0,-1,1
1264,jsdIErrorHook,{b7dd3c1c-1dd1-11b2-83eb-8a857d199e0f},0,-1,1
1265,nsIDOMHTMLInputElement,{a6cf9093-15b3-11d2-932e-00805f8add32},0,-1,1
1266,nsIDOMRGBColor,{6aff3102-320d-4986-9790-12316bb87cf9},0,-1,1
1267,nsPIAccessibleTreeItem,{b71532f9-53b2-4647-a5b2-1c5f57e9aed6},0,-1,0
1268,nsICipherInfo,{028e2b2a-1f0b-43a4-a1a7-365d2d7f35d0},0,-1,1
1269,nsIDOMNamedNodeMap,{a6cf907b-15b3-11d2-932e-00805f8add32},0,-1,1
1270,nsIDOMHTMLBaseFontElement,{a6cf90a6-15b3-11d2-932e-00805f8add32},0,-1,1
1271,nsIDOMXULCheckboxElement,{5afaba88-1dd2-11b2-9249-dd65a129d0e4},0,-1,1
1272,nsIIdleService,{cc52f19a-63ae-4a1c-9cc3-e79eace0b471},0,-1,1
1273,nsIDOMWindow,{a6cf906b-15b3-11d2-932e-00805f8add32},0,-1,1
1274,nsIDOMHTMLDirectoryElement,{a6cf909c-15b3-11d2-932e-00805f8add32},0,-1,1
1275,nsIDOMSVGSwitchElement,{7676f306-22c9-427e-bd71-2b1315851c93},0,-1,1
1276,nsIBrowserHandler,{8d3f5a9d-118d-4548-a137-cf7718679069},0,-1,1
1277,nsIURIChecker,{4660c1a1-be2d-4c78-9baf-c22984176c28},0,-1,1
1278,nsIDOMNSHTMLAreaElement,{3dce9071-f3b9-4280-a6ee-776cdfe3dd9e},0,-1,1
1279,nsIControllers,{f36e3ec1-9197-4ad8-8d4c-d3b1927fd6df},0,-1,1
1280,nsIDOMHTMLImageElement,{a6cf90ab-15b3-11d2-932e-00805f8add32},0,-1,1
1281,nsILocalFileWin,{def38371-73b0-4dfd-85cd-0a7c91afbec6},0,-1,1
1282,nsIDOMHTMLTextAreaElement,{a6cf9094-15b3-11d2-932e-00805f8add32},0,-1,1
1283,nsIDOMCommandEvent,{37fb1798-0f76-4870-af6f-0135b4d973c8},0,-1,1
1284,nsILocalHandlerApp,{9812be73-273c-478c-8170-c3e0db08ae7c},0,-1,1
1285,nsIDOMXULButtonElement,{6852d9a6-1dd2-11b2-a29d-cd7977a91b1b},0,-1,1
1286,nsIXULTemplateQueryProcessor,{970f1c36-5d2e-4cbc-a1cf-e3327b50df71},0,-1,1
1287,nsIEmbeddingSiteWindow,{3e5432cd-9568-4bd1-8cbe-d50aba110743},0,-1,1
1288,nsIDOMSVGFEPointLightElement,{557f128a-026b-4fa8-a44c-605df7bfd62e},0,-1,1
1289,nsIDOMSVGFitToViewBox,{089410f3-9777-44f1-a882-ab4225696434},0,-1,1
1290,nsISearchableInputStream,{8c39ef62-f7c9-11d4-98f5-001083010e9b},0,-1,1
1291,nsINavHistoryQuery,{53b51afe-9de8-40ad-9c81-f2cc1701f1ff},0,-1,1
1292,nsIXPConnectWrappedNative,{7021d99d-6344-4cc0-96e7-943ed58792b8},0,-1,0
1293,nsIProtocolProxyFilter,{f424abd3-32b4-456c-9f45-b7e3376cb0d1},0,-1,1
1294,nsIPK11Token,{51191434-1dd2-11b2-a17c-e49c4e99a4e3},0,-1,1
1295,nsIControllerCommand,{0eae9a46-1dd2-11b2-aca0-9176f05fe9db},0,-1,1
1296,nsIXSLTProcessorPrivate,{b8d727f7-67f4-4dc1-a318-ec0c87280816},0,-1,1
1297,nsISessionStartup,{c0b185e7-0d21-46ac-8eee-7b5065ee7ecd},0,-1,1
1298,nsIDOMNSHTMLAnchorElement2,{d7627eda-6ec0-4326-87c4-c3067fe6e324},0,-1,1
1299,nsIDOMHTMLOListElement,{a6cf909a-15b3-11d2-932e-00805f8add32},0,-1,1
1300,nsITimerCallback,{a796816d-7d47-4348-9ab8-c7aeb3216a7d},0,-1,1
1301,nsIXPCComponents,{155809f1-71f1-47c5-be97-d812ba560405},0,-1,1
1302,nsISocketProviderService,{8f8a23d0-5472-11d3-bbc8-0000861d1237},0,-1,1
1303,nsIZipReaderCache,{52c45d86-0cc3-11d4-986e-00c04fa0cf4a},0,-1,1
1304,nsIWebProgressListener2,{dde39de0-e4e0-11da-8ad9-0800200c9a66},0,-1,1
1305,nsIDynamicContainer,{7e85d97b-4109-4ea7-afd8-bc2cd3840d70},0,-1,1
1306,nsIAtomService,{8c0e6018-6a06-47f5-bfa1-2e051705c9de},0,-1,1
1307,nsIHTTPIndex,{6f2bdbd0-58c3-11d3-be36-00104bde6048},0,-1,1
1308,nsIDOMDocumentRange,{7b9badc6-c9bc-447a-8670-dbd195aed24b},0,-1,1
1309,nsICMSMessage,{a4557478-ae16-11d5-ba4b-00108303b117},0,-1,0
1310,nsIProfileUnlocker,{08923af1-e7a3-4fae-ba02-128502193994},0,-1,1
1311,nsIDOMNodeIterator,{354b5f02-1dd2-11b2-b053-b8c2997022a0},0,-1,1
1312,nsIDOMSVGAnimatedPathData,{6ef2b400-dbf4-4c12-8787-fe15caac5648},0,-1,1
1313,nsIEncodedChannel,{30d7ec3a-f376-4652-9276-3092ec57abb6},0,-1,1
1314,jsdIContextEnumerator,{912e342a-1dd2-11b2-b09f-cf3af38c15f0},0,-1,1
1315,nsIDOMNSHTMLDocument,{79beb289-3644-4b54-9432-9fb993945629},0,-1,1
1316,nsIAccessibleValue,{f4abbc2f-0f28-47dc-a9e9-f7a1719ab2be},0,-1,1
1317,nsIScriptableDateFormat,{0c89efb0-1aae-11d3-9141-006008a6edf6},0,-1,1
1318,nsIAtom,{3d1b15b0-93b4-11d1-895b-006008911b81},0,-1,1
1319,nsIAsyncOutputStream,{beb632d3-d77a-4e90-9134-f9ece69e8200},0,-1,1
1320,nsIDOMEntityReference,{a6cf907a-15b3-11d2-932e-00805f8add32},0,-1,1
1321,nsIXTFElementWrapper,{0ad87068-c6fd-4122-a515-ffe8c4773b10},0,-1,1
1322,nsIUpdatePrompt,{6f145728-abc0-11dc-8314-0800200c9a66},0,-1,1
1323,nsIDOMSVGRectElement,{1695ca39-e40d-44dc-81db-a51b6fd234fa},0,-1,1
1324,mozITXTToHTMLConv,{77c0e42a-1dd2-11b2-8ebf-edc6606f2f4b},0,-1,1
1325,nsIMicrosummaryObserver,{560b0980-be95-47e9-81cc-4428c073127c},0,-1,1
1326,mozIJSSubScriptLoader,{8792d77e-1dd2-11b2-ac7f-9bc9be4f2916},0,-1,1
1327,nsIDocShellLoadInfo,{4f813a88-7aca-4607-9896-d97270cdf15e},0,-1,1
1328,nsIXPCComponents_Results,{2fc229a0-5860-11d3-9899-006008962422},0,-1,1
1329,extIEventItem,{05281820-ab62-11db-abbd-0800200c9a66},0,-1,1
1330,nsIServiceManager,{8bb35ed9-e332-462d-9155-4a002ab5c958},0,-1,1
1331,nsIContentViewerEdit,{1691a02f-53b2-4cb8-8769-48e7efc908b8},0,-1,1
1332,nsISupportsPrimitive,{d0d4b136-1dd1-11b2-9371-f0727ef827c0},0,-1,1
1333,nsIEditorStyleSheets,{4805e682-49b9-11d3-9ce4-ed60bd6cb5bc},0,-1,1
1334,rdfISerializer,{f0edfcdd-8bca-4d32-9226-7421001396a4},0,-1,1
1335,nsIDOMModalContentWindow,{51aebd45-b979-4ec6-9d11-3a3fd3d5d59e},0,-1,1
1336,nsIDOMStorageList,{f2166929-91b6-4372-8d5f-c366f47a5f54},0,-1,1
1337,nsIChromeRegistry,{68389281-f6d0-4533-841d-344a2018140c},0,-1,1
1338,nsISHTransaction,{2edf705f-d252-4971-9f09-71dd0f760dc6},0,-1,1
1339,nsIDOMHTMLIsIndexElement,{a6cf908c-15b3-11d2-932e-00805f8add32},0,-1,1
1340,nsIRDFXMLSinkObserver,{eb1a5d30-ab33-11d2-8ec6-00805f29f370},0,-1,1
1341,nsIASN1Sequence,{b6b957e6-1dd1-11b2-89d7-e30624f50b00},0,-1,1
1342,nsIAutoCompleteSimpleResult,{f9841787-ad26-49e6-a2dd-ba9020ee1c64},0,-1,1
1343,nsIDOMToString,{2a72e20f-e337-4822-8994-2e35b5550d03},0,-1,1
1344,nsIUpdateManager,{fede66a9-9f96-4507-a22a-775ee885577e},0,-1,1
1345,nsIDOMScreen,{77947960-b4af-11d2-bd93-00805f8ae3f4},0,-1,1
1346,nsICertTreeItem,{d0180863-606e-49e6-8324-cf45ed4dd891},0,-1,1
1347,extIConsole,{ae8482e0-aa5a-11db-abbd-0800200c9a66},0,-1,1
1348,nsISAXAttributes,{e347005e-6cd0-11da-be43-001422106990},0,-1,1
1349,nsIXPConnect,{c1d4a482-1beb-4c82-9c0b-d2ab93acc7ef},0,-1,0
1350,nsIWebProgressListener,{570f39d1-efd0-11d3-b093-00a024ffc08c},0,-1,1
1351,nsIUploadChannel,{ddf633d8-e9a4-439d-ad88-de636fd9bb75},0,-1,1
1352,nsIXPCFunctionThisTranslator,{039ef260-2a0d-11d5-90a7-0010a4e73d9a},0,-1,0
1353,nsIController,{d5b61b82-1da4-11d3-bf87-00105a1b0627},0,-1,1
1354,nsIDOMSVGURIReference,{8092b5f3-dc8a-459c-94f1-92f8011f2438},0,-1,1
1355,nsIDOMStorageEvent,{fc540c28-8edd-4b7a-9c30-8638289b7a7d},0,-1,1
